(kicad_sch (version 20230121) (generator eeschema)

  (uuid 83fb4473-b9bd-4da9-920e-764db8ea9029)

  (paper "A4")

  (title_block
    (title "27C400 Emulator Adapter for Batronix")
    (date "2022-04-30")
    (rev "1.0")
  )

  (lib_symbols
    (symbol "Connector_Generic:Conn_01x24" (pin_names (offset 1.016) hide) (in_bom yes) (on_board yes)
      (property "Reference" "J" (at 0 30.48 0)
        (effects (font (size 1.27 1.27)))
      )
      (property "Value" "Conn_01x24" (at 0 -33.02 0)
        (effects (font (size 1.27 1.27)))
      )
      (property "Footprint" "" (at 0 0 0)
        (effects (font (size 1.27 1.27)) hide)
      )
      (property "Datasheet" "~" (at 0 0 0)
        (effects (font (size 1.27 1.27)) hide)
      )
      (property "ki_keywords" "connector" (at 0 0 0)
        (effects (font (size 1.27 1.27)) hide)
      )
      (property "ki_description" "Generic connector, single row, 01x24, script generated (kicad-library-utils/schlib/autogen/connector/)" (at 0 0 0)
        (effects (font (size 1.27 1.27)) hide)
      )
      (property "ki_fp_filters" "Connector*:*_1x??_*" (at 0 0 0)
        (effects (font (size 1.27 1.27)) hide)
      )
      (symbol "Conn_01x24_1_1"
        (rectangle (start -1.27 -30.353) (end 0 -30.607)
          (stroke (width 0.1524) (type default))
          (fill (type none))
        )
        (rectangle (start -1.27 -27.813) (end 0 -28.067)
          (stroke (width 0.1524) (type default))
          (fill (type none))
        )
        (rectangle (start -1.27 -25.273) (end 0 -25.527)
          (stroke (width 0.1524) (type default))
          (fill (type none))
        )
        (rectangle (start -1.27 -22.733) (end 0 -22.987)
          (stroke (width 0.1524) (type default))
          (fill (type none))
        )
        (rectangle (start -1.27 -20.193) (end 0 -20.447)
          (stroke (width 0.1524) (type default))
          (fill (type none))
        )
        (rectangle (start -1.27 -17.653) (end 0 -17.907)
          (stroke (width 0.1524) (type default))
          (fill (type none))
        )
        (rectangle (start -1.27 -15.113) (end 0 -15.367)
          (stroke (width 0.1524) (type default))
          (fill (type none))
        )
        (rectangle (start -1.27 -12.573) (end 0 -12.827)
          (stroke (width 0.1524) (type default))
          (fill (type none))
        )
        (rectangle (start -1.27 -10.033) (end 0 -10.287)
          (stroke (width 0.1524) (type default))
          (fill (type none))
        )
        (rectangle (start -1.27 -7.493) (end 0 -7.747)
          (stroke (width 0.1524) (type default))
          (fill (type none))
        )
        (rectangle (start -1.27 -4.953) (end 0 -5.207)
          (stroke (width 0.1524) (type default))
          (fill (type none))
        )
        (rectangle (start -1.27 -2.413) (end 0 -2.667)
          (stroke (width 0.1524) (type default))
          (fill (type none))
        )
        (rectangle (start -1.27 0.127) (end 0 -0.127)
          (stroke (width 0.1524) (type default))
          (fill (type none))
        )
        (rectangle (start -1.27 2.667) (end 0 2.413)
          (stroke (width 0.1524) (type default))
          (fill (type none))
        )
        (rectangle (start -1.27 5.207) (end 0 4.953)
          (stroke (width 0.1524) (type default))
          (fill (type none))
        )
        (rectangle (start -1.27 7.747) (end 0 7.493)
          (stroke (width 0.1524) (type default))
          (fill (type none))
        )
        (rectangle (start -1.27 10.287) (end 0 10.033)
          (stroke (width 0.1524) (type default))
          (fill (type none))
        )
        (rectangle (start -1.27 12.827) (end 0 12.573)
          (stroke (width 0.1524) (type default))
          (fill (type none))
        )
        (rectangle (start -1.27 15.367) (end 0 15.113)
          (stroke (width 0.1524) (type default))
          (fill (type none))
        )
        (rectangle (start -1.27 17.907) (end 0 17.653)
          (stroke (width 0.1524) (type default))
          (fill (type none))
        )
        (rectangle (start -1.27 20.447) (end 0 20.193)
          (stroke (width 0.1524) (type default))
          (fill (type none))
        )
        (rectangle (start -1.27 22.987) (end 0 22.733)
          (stroke (width 0.1524) (type default))
          (fill (type none))
        )
        (rectangle (start -1.27 25.527) (end 0 25.273)
          (stroke (width 0.1524) (type default))
          (fill (type none))
        )
        (rectangle (start -1.27 28.067) (end 0 27.813)
          (stroke (width 0.1524) (type default))
          (fill (type none))
        )
        (rectangle (start -1.27 29.21) (end 1.27 -31.75)
          (stroke (width 0.254) (type default))
          (fill (type background))
        )
        (pin passive line (at -5.08 27.94 0) (length 3.81)
          (name "Pin_1" (effects (font (size 1.27 1.27))))
          (number "1" (effects (font (size 1.27 1.27))))
        )
        (pin passive line (at -5.08 5.08 0) (length 3.81)
          (name "Pin_10" (effects (font (size 1.27 1.27))))
          (number "10" (effects (font (size 1.27 1.27))))
        )
        (pin passive line (at -5.08 2.54 0) (length 3.81)
          (name "Pin_11" (effects (font (size 1.27 1.27))))
          (number "11" (effects (font (size 1.27 1.27))))
        )
        (pin passive line (at -5.08 0 0) (length 3.81)
          (name "Pin_12" (effects (font (size 1.27 1.27))))
          (number "12" (effects (font (size 1.27 1.27))))
        )
        (pin passive line (at -5.08 -2.54 0) (length 3.81)
          (name "Pin_13" (effects (font (size 1.27 1.27))))
          (number "13" (effects (font (size 1.27 1.27))))
        )
        (pin passive line (at -5.08 -5.08 0) (length 3.81)
          (name "Pin_14" (effects (font (size 1.27 1.27))))
          (number "14" (effects (font (size 1.27 1.27))))
        )
        (pin passive line (at -5.08 -7.62 0) (length 3.81)
          (name "Pin_15" (effects (font (size 1.27 1.27))))
          (number "15" (effects (font (size 1.27 1.27))))
        )
        (pin passive line (at -5.08 -10.16 0) (length 3.81)
          (name "Pin_16" (effects (font (size 1.27 1.27))))
          (number "16" (effects (font (size 1.27 1.27))))
        )
        (pin passive line (at -5.08 -12.7 0) (length 3.81)
          (name "Pin_17" (effects (font (size 1.27 1.27))))
          (number "17" (effects (font (size 1.27 1.27))))
        )
        (pin passive line (at -5.08 -15.24 0) (length 3.81)
          (name "Pin_18" (effects (font (size 1.27 1.27))))
          (number "18" (effects (font (size 1.27 1.27))))
        )
        (pin passive line (at -5.08 -17.78 0) (length 3.81)
          (name "Pin_19" (effects (font (size 1.27 1.27))))
          (number "19" (effects (font (size 1.27 1.27))))
        )
        (pin passive line (at -5.08 25.4 0) (length 3.81)
          (name "Pin_2" (effects (font (size 1.27 1.27))))
          (number "2" (effects (font (size 1.27 1.27))))
        )
        (pin passive line (at -5.08 -20.32 0) (length 3.81)
          (name "Pin_20" (effects (font (size 1.27 1.27))))
          (number "20" (effects (font (size 1.27 1.27))))
        )
        (pin passive line (at -5.08 -22.86 0) (length 3.81)
          (name "Pin_21" (effects (font (size 1.27 1.27))))
          (number "21" (effects (font (size 1.27 1.27))))
        )
        (pin passive line (at -5.08 -25.4 0) (length 3.81)
          (name "Pin_22" (effects (font (size 1.27 1.27))))
          (number "22" (effects (font (size 1.27 1.27))))
        )
        (pin passive line (at -5.08 -27.94 0) (length 3.81)
          (name "Pin_23" (effects (font (size 1.27 1.27))))
          (number "23" (effects (font (size 1.27 1.27))))
        )
        (pin passive line (at -5.08 -30.48 0) (length 3.81)
          (name "Pin_24" (effects (font (size 1.27 1.27))))
          (number "24" (effects (font (size 1.27 1.27))))
        )
        (pin passive line (at -5.08 22.86 0) (length 3.81)
          (name "Pin_3" (effects (font (size 1.27 1.27))))
          (number "3" (effects (font (size 1.27 1.27))))
        )
        (pin passive line (at -5.08 20.32 0) (length 3.81)
          (name "Pin_4" (effects (font (size 1.27 1.27))))
          (number "4" (effects (font (size 1.27 1.27))))
        )
        (pin passive line (at -5.08 17.78 0) (length 3.81)
          (name "Pin_5" (effects (font (size 1.27 1.27))))
          (number "5" (effects (font (size 1.27 1.27))))
        )
        (pin passive line (at -5.08 15.24 0) (length 3.81)
          (name "Pin_6" (effects (font (size 1.27 1.27))))
          (number "6" (effects (font (size 1.27 1.27))))
        )
        (pin passive line (at -5.08 12.7 0) (length 3.81)
          (name "Pin_7" (effects (font (size 1.27 1.27))))
          (number "7" (effects (font (size 1.27 1.27))))
        )
        (pin passive line (at -5.08 10.16 0) (length 3.81)
          (name "Pin_8" (effects (font (size 1.27 1.27))))
          (number "8" (effects (font (size 1.27 1.27))))
        )
        (pin passive line (at -5.08 7.62 0) (length 3.81)
          (name "Pin_9" (effects (font (size 1.27 1.27))))
          (number "9" (effects (font (size 1.27 1.27))))
        )
      )
    )
    (symbol "Connector_Generic:Conn_02x04_Odd_Even" (pin_names (offset 1.016) hide) (in_bom yes) (on_board yes)
      (property "Reference" "J" (at 1.27 5.08 0)
        (effects (font (size 1.27 1.27)))
      )
      (property "Value" "Conn_02x04_Odd_Even" (at 1.27 -7.62 0)
        (effects (font (size 1.27 1.27)))
      )
      (property "Footprint" "" (at 0 0 0)
        (effects (font (size 1.27 1.27)) hide)
      )
      (property "Datasheet" "~" (at 0 0 0)
        (effects (font (size 1.27 1.27)) hide)
      )
      (property "ki_keywords" "connector" (at 0 0 0)
        (effects (font (size 1.27 1.27)) hide)
      )
      (property "ki_description" "Generic connector, double row, 02x04, odd/even pin numbering scheme (row 1 odd numbers, row 2 even numbers), script generated (kicad-library-utils/schlib/autogen/connector/)" (at 0 0 0)
        (effects (font (size 1.27 1.27)) hide)
      )
      (property "ki_fp_filters" "Connector*:*_2x??_*" (at 0 0 0)
        (effects (font (size 1.27 1.27)) hide)
      )
      (symbol "Conn_02x04_Odd_Even_1_1"
        (rectangle (start -1.27 -4.953) (end 0 -5.207)
          (stroke (width 0.1524) (type default))
          (fill (type none))
        )
        (rectangle (start -1.27 -2.413) (end 0 -2.667)
          (stroke (width 0.1524) (type default))
          (fill (type none))
        )
        (rectangle (start -1.27 0.127) (end 0 -0.127)
          (stroke (width 0.1524) (type default))
          (fill (type none))
        )
        (rectangle (start -1.27 2.667) (end 0 2.413)
          (stroke (width 0.1524) (type default))
          (fill (type none))
        )
        (rectangle (start -1.27 3.81) (end 3.81 -6.35)
          (stroke (width 0.254) (type default))
          (fill (type background))
        )
        (rectangle (start 3.81 -4.953) (end 2.54 -5.207)
          (stroke (width 0.1524) (type default))
          (fill (type none))
        )
        (rectangle (start 3.81 -2.413) (end 2.54 -2.667)
          (stroke (width 0.1524) (type default))
          (fill (type none))
        )
        (rectangle (start 3.81 0.127) (end 2.54 -0.127)
          (stroke (width 0.1524) (type default))
          (fill (type none))
        )
        (rectangle (start 3.81 2.667) (end 2.54 2.413)
          (stroke (width 0.1524) (type default))
          (fill (type none))
        )
        (pin passive line (at -5.08 2.54 0) (length 3.81)
          (name "Pin_1" (effects (font (size 1.27 1.27))))
          (number "1" (effects (font (size 1.27 1.27))))
        )
        (pin passive line (at 7.62 2.54 180) (length 3.81)
          (name "Pin_2" (effects (font (size 1.27 1.27))))
          (number "2" (effects (font (size 1.27 1.27))))
        )
        (pin passive line (at -5.08 0 0) (length 3.81)
          (name "Pin_3" (effects (font (size 1.27 1.27))))
          (number "3" (effects (font (size 1.27 1.27))))
        )
        (pin passive line (at 7.62 0 180) (length 3.81)
          (name "Pin_4" (effects (font (size 1.27 1.27))))
          (number "4" (effects (font (size 1.27 1.27))))
        )
        (pin passive line (at -5.08 -2.54 0) (length 3.81)
          (name "Pin_5" (effects (font (size 1.27 1.27))))
          (number "5" (effects (font (size 1.27 1.27))))
        )
        (pin passive line (at 7.62 -2.54 180) (length 3.81)
          (name "Pin_6" (effects (font (size 1.27 1.27))))
          (number "6" (effects (font (size 1.27 1.27))))
        )
        (pin passive line (at -5.08 -5.08 0) (length 3.81)
          (name "Pin_7" (effects (font (size 1.27 1.27))))
          (number "7" (effects (font (size 1.27 1.27))))
        )
        (pin passive line (at 7.62 -5.08 180) (length 3.81)
          (name "Pin_8" (effects (font (size 1.27 1.27))))
          (number "8" (effects (font (size 1.27 1.27))))
        )
      )
    )
    (symbol "Connector_Generic:Conn_02x20_Counter_Clockwise" (pin_names (offset 1.016) hide) (in_bom yes) (on_board yes)
      (property "Reference" "J" (at 1.27 25.4 0)
        (effects (font (size 1.27 1.27)))
      )
      (property "Value" "Conn_02x20_Counter_Clockwise" (at 1.27 -27.94 0)
        (effects (font (size 1.27 1.27)))
      )
      (property "Footprint" "" (at 0 0 0)
        (effects (font (size 1.27 1.27)) hide)
      )
      (property "Datasheet" "~" (at 0 0 0)
        (effects (font (size 1.27 1.27)) hide)
      )
      (property "ki_keywords" "connector" (at 0 0 0)
        (effects (font (size 1.27 1.27)) hide)
      )
      (property "ki_description" "Generic connector, double row, 02x20, counter clockwise pin numbering scheme (similar to DIP packge numbering), script generated (kicad-library-utils/schlib/autogen/connector/)" (at 0 0 0)
        (effects (font (size 1.27 1.27)) hide)
      )
      (property "ki_fp_filters" "Connector*:*_2x??_*" (at 0 0 0)
        (effects (font (size 1.27 1.27)) hide)
      )
      (symbol "Conn_02x20_Counter_Clockwise_1_1"
        (rectangle (start -1.27 -25.273) (end 0 -25.527)
          (stroke (width 0.1524) (type default))
          (fill (type none))
        )
        (rectangle (start -1.27 -22.733) (end 0 -22.987)
          (stroke (width 0.1524) (type default))
          (fill (type none))
        )
        (rectangle (start -1.27 -20.193) (end 0 -20.447)
          (stroke (width 0.1524) (type default))
          (fill (type none))
        )
        (rectangle (start -1.27 -17.653) (end 0 -17.907)
          (stroke (width 0.1524) (type default))
          (fill (type none))
        )
        (rectangle (start -1.27 -15.113) (end 0 -15.367)
          (stroke (width 0.1524) (type default))
          (fill (type none))
        )
        (rectangle (start -1.27 -12.573) (end 0 -12.827)
          (stroke (width 0.1524) (type default))
          (fill (type none))
        )
        (rectangle (start -1.27 -10.033) (end 0 -10.287)
          (stroke (width 0.1524) (type default))
          (fill (type none))
        )
        (rectangle (start -1.27 -7.493) (end 0 -7.747)
          (stroke (width 0.1524) (type default))
          (fill (type none))
        )
        (rectangle (start -1.27 -4.953) (end 0 -5.207)
          (stroke (width 0.1524) (type default))
          (fill (type none))
        )
        (rectangle (start -1.27 -2.413) (end 0 -2.667)
          (stroke (width 0.1524) (type default))
          (fill (type none))
        )
        (rectangle (start -1.27 0.127) (end 0 -0.127)
          (stroke (width 0.1524) (type default))
          (fill (type none))
        )
        (rectangle (start -1.27 2.667) (end 0 2.413)
          (stroke (width 0.1524) (type default))
          (fill (type none))
        )
        (rectangle (start -1.27 5.207) (end 0 4.953)
          (stroke (width 0.1524) (type default))
          (fill (type none))
        )
        (rectangle (start -1.27 7.747) (end 0 7.493)
          (stroke (width 0.1524) (type default))
          (fill (type none))
        )
        (rectangle (start -1.27 10.287) (end 0 10.033)
          (stroke (width 0.1524) (type default))
          (fill (type none))
        )
        (rectangle (start -1.27 12.827) (end 0 12.573)
          (stroke (width 0.1524) (type default))
          (fill (type none))
        )
        (rectangle (start -1.27 15.367) (end 0 15.113)
          (stroke (width 0.1524) (type default))
          (fill (type none))
        )
        (rectangle (start -1.27 17.907) (end 0 17.653)
          (stroke (width 0.1524) (type default))
          (fill (type none))
        )
        (rectangle (start -1.27 20.447) (end 0 20.193)
          (stroke (width 0.1524) (type default))
          (fill (type none))
        )
        (rectangle (start -1.27 22.987) (end 0 22.733)
          (stroke (width 0.1524) (type default))
          (fill (type none))
        )
        (rectangle (start -1.27 24.13) (end 3.81 -26.67)
          (stroke (width 0.254) (type default))
          (fill (type background))
        )
        (rectangle (start 3.81 -25.273) (end 2.54 -25.527)
          (stroke (width 0.1524) (type default))
          (fill (type none))
        )
        (rectangle (start 3.81 -22.733) (end 2.54 -22.987)
          (stroke (width 0.1524) (type default))
          (fill (type none))
        )
        (rectangle (start 3.81 -20.193) (end 2.54 -20.447)
          (stroke (width 0.1524) (type default))
          (fill (type none))
        )
        (rectangle (start 3.81 -17.653) (end 2.54 -17.907)
          (stroke (width 0.1524) (type default))
          (fill (type none))
        )
        (rectangle (start 3.81 -15.113) (end 2.54 -15.367)
          (stroke (width 0.1524) (type default))
          (fill (type none))
        )
        (rectangle (start 3.81 -12.573) (end 2.54 -12.827)
          (stroke (width 0.1524) (type default))
          (fill (type none))
        )
        (rectangle (start 3.81 -10.033) (end 2.54 -10.287)
          (stroke (width 0.1524) (type default))
          (fill (type none))
        )
        (rectangle (start 3.81 -7.493) (end 2.54 -7.747)
          (stroke (width 0.1524) (type default))
          (fill (type none))
        )
        (rectangle (start 3.81 -4.953) (end 2.54 -5.207)
          (stroke (width 0.1524) (type default))
          (fill (type none))
        )
        (rectangle (start 3.81 -2.413) (end 2.54 -2.667)
          (stroke (width 0.1524) (type default))
          (fill (type none))
        )
        (rectangle (start 3.81 0.127) (end 2.54 -0.127)
          (stroke (width 0.1524) (type default))
          (fill (type none))
        )
        (rectangle (start 3.81 2.667) (end 2.54 2.413)
          (stroke (width 0.1524) (type default))
          (fill (type none))
        )
        (rectangle (start 3.81 5.207) (end 2.54 4.953)
          (stroke (width 0.1524) (type default))
          (fill (type none))
        )
        (rectangle (start 3.81 7.747) (end 2.54 7.493)
          (stroke (width 0.1524) (type default))
          (fill (type none))
        )
        (rectangle (start 3.81 10.287) (end 2.54 10.033)
          (stroke (width 0.1524) (type default))
          (fill (type none))
        )
        (rectangle (start 3.81 12.827) (end 2.54 12.573)
          (stroke (width 0.1524) (type default))
          (fill (type none))
        )
        (rectangle (start 3.81 15.367) (end 2.54 15.113)
          (stroke (width 0.1524) (type default))
          (fill (type none))
        )
        (rectangle (start 3.81 17.907) (end 2.54 17.653)
          (stroke (width 0.1524) (type default))
          (fill (type none))
        )
        (rectangle (start 3.81 20.447) (end 2.54 20.193)
          (stroke (width 0.1524) (type default))
          (fill (type none))
        )
        (rectangle (start 3.81 22.987) (end 2.54 22.733)
          (stroke (width 0.1524) (type default))
          (fill (type none))
        )
        (pin passive line (at -5.08 22.86 0) (length 3.81)
          (name "Pin_1" (effects (font (size 1.27 1.27))))
          (number "1" (effects (font (size 1.27 1.27))))
        )
        (pin passive line (at -5.08 0 0) (length 3.81)
          (name "Pin_10" (effects (font (size 1.27 1.27))))
          (number "10" (effects (font (size 1.27 1.27))))
        )
        (pin passive line (at -5.08 -2.54 0) (length 3.81)
          (name "Pin_11" (effects (font (size 1.27 1.27))))
          (number "11" (effects (font (size 1.27 1.27))))
        )
        (pin passive line (at -5.08 -5.08 0) (length 3.81)
          (name "Pin_12" (effects (font (size 1.27 1.27))))
          (number "12" (effects (font (size 1.27 1.27))))
        )
        (pin passive line (at -5.08 -7.62 0) (length 3.81)
          (name "Pin_13" (effects (font (size 1.27 1.27))))
          (number "13" (effects (font (size 1.27 1.27))))
        )
        (pin passive line (at -5.08 -10.16 0) (length 3.81)
          (name "Pin_14" (effects (font (size 1.27 1.27))))
          (number "14" (effects (font (size 1.27 1.27))))
        )
        (pin passive line (at -5.08 -12.7 0) (length 3.81)
          (name "Pin_15" (effects (font (size 1.27 1.27))))
          (number "15" (effects (font (size 1.27 1.27))))
        )
        (pin passive line (at -5.08 -15.24 0) (length 3.81)
          (name "Pin_16" (effects (font (size 1.27 1.27))))
          (number "16" (effects (font (size 1.27 1.27))))
        )
        (pin passive line (at -5.08 -17.78 0) (length 3.81)
          (name "Pin_17" (effects (font (size 1.27 1.27))))
          (number "17" (effects (font (size 1.27 1.27))))
        )
        (pin passive line (at -5.08 -20.32 0) (length 3.81)
          (name "Pin_18" (effects (font (size 1.27 1.27))))
          (number "18" (effects (font (size 1.27 1.27))))
        )
        (pin passive line (at -5.08 -22.86 0) (length 3.81)
          (name "Pin_19" (effects (font (size 1.27 1.27))))
          (number "19" (effects (font (size 1.27 1.27))))
        )
        (pin passive line (at -5.08 20.32 0) (length 3.81)
          (name "Pin_2" (effects (font (size 1.27 1.27))))
          (number "2" (effects (font (size 1.27 1.27))))
        )
        (pin passive line (at -5.08 -25.4 0) (length 3.81)
          (name "Pin_20" (effects (font (size 1.27 1.27))))
          (number "20" (effects (font (size 1.27 1.27))))
        )
        (pin passive line (at 7.62 -25.4 180) (length 3.81)
          (name "Pin_21" (effects (font (size 1.27 1.27))))
          (number "21" (effects (font (size 1.27 1.27))))
        )
        (pin passive line (at 7.62 -22.86 180) (length 3.81)
          (name "Pin_22" (effects (font (size 1.27 1.27))))
          (number "22" (effects (font (size 1.27 1.27))))
        )
        (pin passive line (at 7.62 -20.32 180) (length 3.81)
          (name "Pin_23" (effects (font (size 1.27 1.27))))
          (number "23" (effects (font (size 1.27 1.27))))
        )
        (pin passive line (at 7.62 -17.78 180) (length 3.81)
          (name "Pin_24" (effects (font (size 1.27 1.27))))
          (number "24" (effects (font (size 1.27 1.27))))
        )
        (pin passive line (at 7.62 -15.24 180) (length 3.81)
          (name "Pin_25" (effects (font (size 1.27 1.27))))
          (number "25" (effects (font (size 1.27 1.27))))
        )
        (pin passive line (at 7.62 -12.7 180) (length 3.81)
          (name "Pin_26" (effects (font (size 1.27 1.27))))
          (number "26" (effects (font (size 1.27 1.27))))
        )
        (pin passive line (at 7.62 -10.16 180) (length 3.81)
          (name "Pin_27" (effects (font (size 1.27 1.27))))
          (number "27" (effects (font (size 1.27 1.27))))
        )
        (pin passive line (at 7.62 -7.62 180) (length 3.81)
          (name "Pin_28" (effects (font (size 1.27 1.27))))
          (number "28" (effects (font (size 1.27 1.27))))
        )
        (pin passive line (at 7.62 -5.08 180) (length 3.81)
          (name "Pin_29" (effects (font (size 1.27 1.27))))
          (number "29" (effects (font (size 1.27 1.27))))
        )
        (pin passive line (at -5.08 17.78 0) (length 3.81)
          (name "Pin_3" (effects (font (size 1.27 1.27))))
          (number "3" (effects (font (size 1.27 1.27))))
        )
        (pin passive line (at 7.62 -2.54 180) (length 3.81)
          (name "Pin_30" (effects (font (size 1.27 1.27))))
          (number "30" (effects (font (size 1.27 1.27))))
        )
        (pin passive line (at 7.62 0 180) (length 3.81)
          (name "Pin_31" (effects (font (size 1.27 1.27))))
          (number "31" (effects (font (size 1.27 1.27))))
        )
        (pin passive line (at 7.62 2.54 180) (length 3.81)
          (name "Pin_32" (effects (font (size 1.27 1.27))))
          (number "32" (effects (font (size 1.27 1.27))))
        )
        (pin passive line (at 7.62 5.08 180) (length 3.81)
          (name "Pin_33" (effects (font (size 1.27 1.27))))
          (number "33" (effects (font (size 1.27 1.27))))
        )
        (pin passive line (at 7.62 7.62 180) (length 3.81)
          (name "Pin_34" (effects (font (size 1.27 1.27))))
          (number "34" (effects (font (size 1.27 1.27))))
        )
        (pin passive line (at 7.62 10.16 180) (length 3.81)
          (name "Pin_35" (effects (font (size 1.27 1.27))))
          (number "35" (effects (font (size 1.27 1.27))))
        )
        (pin passive line (at 7.62 12.7 180) (length 3.81)
          (name "Pin_36" (effects (font (size 1.27 1.27))))
          (number "36" (effects (font (size 1.27 1.27))))
        )
        (pin passive line (at 7.62 15.24 180) (length 3.81)
          (name "Pin_37" (effects (font (size 1.27 1.27))))
          (number "37" (effects (font (size 1.27 1.27))))
        )
        (pin passive line (at 7.62 17.78 180) (length 3.81)
          (name "Pin_38" (effects (font (size 1.27 1.27))))
          (number "38" (effects (font (size 1.27 1.27))))
        )
        (pin passive line (at 7.62 20.32 180) (length 3.81)
          (name "Pin_39" (effects (font (size 1.27 1.27))))
          (number "39" (effects (font (size 1.27 1.27))))
        )
        (pin passive line (at -5.08 15.24 0) (length 3.81)
          (name "Pin_4" (effects (font (size 1.27 1.27))))
          (number "4" (effects (font (size 1.27 1.27))))
        )
        (pin passive line (at 7.62 22.86 180) (length 3.81)
          (name "Pin_40" (effects (font (size 1.27 1.27))))
          (number "40" (effects (font (size 1.27 1.27))))
        )
        (pin passive line (at -5.08 12.7 0) (length 3.81)
          (name "Pin_5" (effects (font (size 1.27 1.27))))
          (number "5" (effects (font (size 1.27 1.27))))
        )
        (pin passive line (at -5.08 10.16 0) (length 3.81)
          (name "Pin_6" (effects (font (size 1.27 1.27))))
          (number "6" (effects (font (size 1.27 1.27))))
        )
        (pin passive line (at -5.08 7.62 0) (length 3.81)
          (name "Pin_7" (effects (font (size 1.27 1.27))))
          (number "7" (effects (font (size 1.27 1.27))))
        )
        (pin passive line (at -5.08 5.08 0) (length 3.81)
          (name "Pin_8" (effects (font (size 1.27 1.27))))
          (number "8" (effects (font (size 1.27 1.27))))
        )
        (pin passive line (at -5.08 2.54 0) (length 3.81)
          (name "Pin_9" (effects (font (size 1.27 1.27))))
          (number "9" (effects (font (size 1.27 1.27))))
        )
      )
    )
    (symbol "power:+5V" (power) (pin_names (offset 0)) (in_bom yes) (on_board yes)
      (property "Reference" "#PWR" (at 0 -3.81 0)
        (effects (font (size 1.27 1.27)) hide)
      )
      (property "Value" "+5V" (at 0 3.556 0)
        (effects (font (size 1.27 1.27)))
      )
      (property "Footprint" "" (at 0 0 0)
        (effects (font (size 1.27 1.27)) hide)
      )
      (property "Datasheet" "" (at 0 0 0)
        (effects (font (size 1.27 1.27)) hide)
      )
      (property "ki_keywords" "power-flag" (at 0 0 0)
        (effects (font (size 1.27 1.27)) hide)
      )
      (property "ki_description" "Power symbol creates a global label with name \"+5V\"" (at 0 0 0)
        (effects (font (size 1.27 1.27)) hide)
      )
      (symbol "+5V_0_1"
        (polyline
          (pts
            (xy -0.762 1.27)
            (xy 0 2.54)
          )
          (stroke (width 0) (type default))
          (fill (type none))
        )
        (polyline
          (pts
            (xy 0 0)
            (xy 0 2.54)
          )
          (stroke (width 0) (type default))
          (fill (type none))
        )
        (polyline
          (pts
            (xy 0 2.54)
            (xy 0.762 1.27)
          )
          (stroke (width 0) (type default))
          (fill (type none))
        )
      )
      (symbol "+5V_1_1"
        (pin power_in line (at 0 0 90) (length 0) hide
          (name "+5V" (effects (font (size 1.27 1.27))))
          (number "1" (effects (font (size 1.27 1.27))))
        )
      )
    )
    (symbol "power:GND" (power) (pin_names (offset 0)) (in_bom yes) (on_board yes)
      (property "Reference" "#PWR" (at 0 -6.35 0)
        (effects (font (size 1.27 1.27)) hide)
      )
      (property "Value" "GND" (at 0 -3.81 0)
        (effects (font (size 1.27 1.27)))
      )
      (property "Footprint" "" (at 0 0 0)
        (effects (font (size 1.27 1.27)) hide)
      )
      (property "Datasheet" "" (at 0 0 0)
        (effects (font (size 1.27 1.27)) hide)
      )
      (property "ki_keywords" "power-flag" (at 0 0 0)
        (effects (font (size 1.27 1.27)) hide)
      )
      (property "ki_description" "Power symbol creates a global label with name \"GND\" , ground" (at 0 0 0)
        (effects (font (size 1.27 1.27)) hide)
      )
      (symbol "GND_0_1"
        (polyline
          (pts
            (xy 0 0)
            (xy 0 -1.27)
            (xy 1.27 -1.27)
            (xy 0 -2.54)
            (xy -1.27 -1.27)
            (xy 0 -1.27)
          )
          (stroke (width 0) (type default))
          (fill (type none))
        )
      )
      (symbol "GND_1_1"
        (pin power_in line (at 0 0 270) (length 0) hide
          (name "GND" (effects (font (size 1.27 1.27))))
          (number "1" (effects (font (size 1.27 1.27))))
        )
      )
    )
  )

  (junction (at 152.4 38.1) (diameter 0) (color 0 0 0 0)
    (uuid 2f51556d-9ef8-4748-bd45-1c5aa06993a2)
  )
  (junction (at 160.02 125.73) (diameter 0) (color 0 0 0 0)
    (uuid 390fa268-7169-4065-a312-8dbc87aa6b2c)
  )
  (junction (at 135.255 104.14) (diameter 0) (color 0 0 0 0)
    (uuid f36aaf01-9a45-438c-bdf9-a9ae4545f2ea)
  )
  (junction (at 139.7 38.1) (diameter 0) (color 0 0 0 0)
    (uuid fd887124-a6bb-4fc0-a74b-776e58a415c5)
  )

  (no_connect (at 179.07 128.27) (uuid 26ce929e-ac01-4a6a-b3d9-c39ac511dbc4))
  (no_connect (at 102.87 83.82) (uuid 5644ca3d-aebb-4ced-bc56-4424c8be2791))
  (no_connect (at 102.87 81.28) (uuid 5644ca3d-aebb-4ced-bc56-4424c8be2792))
  (no_connect (at 102.87 73.66) (uuid 5644ca3d-aebb-4ced-bc56-4424c8be2793))

  (bus_entry (at 139.7 101.6) (size -2.54 -2.54)
    (stroke (width 0) (type default))
    (uuid 01f277fa-6dac-4859-89ef-e9777455dc37)
  )
  (bus_entry (at 193.04 63.5) (size -2.54 -2.54)
    (stroke (width 0) (type default))
    (uuid 0271df29-1cb7-4f66-9fb7-2d9513f2aa08)
  )
  (bus_entry (at 139.7 68.58) (size -2.54 -2.54)
    (stroke (width 0) (type default))
    (uuid 07d166b5-7934-4bba-b1bd-5f3a951f6d18)
  )
  (bus_entry (at 193.04 55.88) (size -2.54 -2.54)
    (stroke (width 0) (type default))
    (uuid 0d70240e-54cb-4816-ae54-69abcce60c91)
  )
  (bus_entry (at 139.7 60.96) (size -2.54 -2.54)
    (stroke (width 0) (type default))
    (uuid 0e9a7716-1fb8-4984-bf83-6194d20f321e)
  )
  (bus_entry (at 152.4 130.81) (size 2.54 -2.54)
    (stroke (width 0) (type default))
    (uuid 0ebcf2c6-e8bd-4cf5-87c5-7aa888c9e90c)
  )
  (bus_entry (at 193.04 83.82) (size -2.54 -2.54)
    (stroke (width 0) (type default))
    (uuid 10ed15d6-f9f8-4b3a-8aa8-4905e936d87c)
  )
  (bus_entry (at 152.4 68.58) (size 2.54 -2.54)
    (stroke (width 0) (type default))
    (uuid 11e77e5d-d3ea-43f2-9a24-ad790f982873)
  )
  (bus_entry (at 139.7 53.34) (size -2.54 -2.54)
    (stroke (width 0) (type default))
    (uuid 11fab75f-f5c7-4a1f-ad45-424485aebc69)
  )
  (bus_entry (at 193.04 128.27) (size -2.54 -2.54)
    (stroke (width 0) (type default))
    (uuid 16d9b9fe-06c6-446c-a126-0483df5f5f8a)
  )
  (bus_entry (at 139.7 73.66) (size -2.54 -2.54)
    (stroke (width 0) (type default))
    (uuid 21773406-f9ad-427d-a3f1-4dd5e0fd8f3e)
  )
  (bus_entry (at 139.7 93.98) (size -2.54 -2.54)
    (stroke (width 0) (type default))
    (uuid 2915675d-34f6-4b3e-8a79-c8e95c364c9b)
  )
  (bus_entry (at 139.7 63.5) (size -2.54 -2.54)
    (stroke (width 0) (type default))
    (uuid 2cb9b8bd-187d-47e5-a7f6-6d06e2f52796)
  )
  (bus_entry (at 152.4 81.28) (size 2.54 -2.54)
    (stroke (width 0) (type default))
    (uuid 2e51cc89-dafc-4bf1-bf33-70f9129780b3)
  )
  (bus_entry (at 152.4 101.6) (size 2.54 -2.54)
    (stroke (width 0) (type default))
    (uuid 2ea71475-93d2-4c0c-a089-c1d5c2ae441f)
  )
  (bus_entry (at 152.4 93.98) (size 2.54 -2.54)
    (stroke (width 0) (type default))
    (uuid 30e758e5-6d08-4157-a020-f430eb026f41)
  )
  (bus_entry (at 88.9 96.52) (size 2.54 -2.54)
    (stroke (width 0) (type default))
    (uuid 33e05251-0620-4fd7-aac0-4348c49cfddb)
  )
  (bus_entry (at 88.9 53.34) (size 2.54 -2.54)
    (stroke (width 0) (type default))
    (uuid 366319ac-d468-470b-ac49-f6c048f7ac4c)
  )
  (bus_entry (at 139.7 86.36) (size -2.54 -2.54)
    (stroke (width 0) (type default))
    (uuid 366c7f8b-5f86-418c-bdf4-2f882440ae51)
  )
  (bus_entry (at 88.9 109.22) (size 2.54 -2.54)
    (stroke (width 0) (type default))
    (uuid 3852753b-2874-40a3-b408-696803aacb10)
  )
  (bus_entry (at 139.7 76.2) (size -2.54 -2.54)
    (stroke (width 0) (type default))
    (uuid 3cd1ac98-6f56-47f8-b499-3339b7253a88)
  )
  (bus_entry (at 139.7 71.12) (size -2.54 -2.54)
    (stroke (width 0) (type default))
    (uuid 3df3afd3-07f5-4e0a-ba88-8531f3fd2a6c)
  )
  (bus_entry (at 139.7 91.44) (size -2.54 -2.54)
    (stroke (width 0) (type default))
    (uuid 40bf41b4-0309-42d9-839b-dc9e873f2da1)
  )
  (bus_entry (at 139.7 109.22) (size -2.54 -2.54)
    (stroke (width 0) (type default))
    (uuid 47423d4a-74c7-44d6-b946-7a590612083c)
  )
  (bus_entry (at 139.7 55.88) (size -2.54 -2.54)
    (stroke (width 0) (type default))
    (uuid 4a9b609f-ae76-4471-8796-52fe4319c488)
  )
  (bus_entry (at 88.9 88.9) (size 2.54 -2.54)
    (stroke (width 0) (type default))
    (uuid 51084a39-98bf-49d9-98ca-34ff2d6b4529)
  )
  (bus_entry (at 139.7 78.74) (size -2.54 -2.54)
    (stroke (width 0) (type default))
    (uuid 57f9ff46-613a-49f7-8fb5-14f6082b5a4f)
  )
  (bus_entry (at 193.04 81.28) (size -2.54 -2.54)
    (stroke (width 0) (type default))
    (uuid 60deb250-193c-446a-974f-2af70acabe2a)
  )
  (bus_entry (at 88.9 99.06) (size 2.54 -2.54)
    (stroke (width 0) (type default))
    (uuid 663bbb33-222d-4add-a437-0e1d42b7f4d1)
  )
  (bus_entry (at 193.04 96.52) (size -2.54 -2.54)
    (stroke (width 0) (type default))
    (uuid 66d40557-fd2e-4b6a-bed2-e7680d11b669)
  )
  (bus_entry (at 152.4 73.66) (size 2.54 -2.54)
    (stroke (width 0) (type default))
    (uuid 6a9d00e4-bf22-420e-a182-bba34a95523f)
  )
  (bus_entry (at 139.7 83.82) (size -2.54 -2.54)
    (stroke (width 0) (type default))
    (uuid 6d9f2d81-fadd-4b27-b77f-1676dd5a456c)
  )
  (bus_entry (at 152.4 55.88) (size 2.54 -2.54)
    (stroke (width 0) (type default))
    (uuid 6f344684-c270-494e-9619-8f468d485ca9)
  )
  (bus_entry (at 139.7 66.04) (size -2.54 -2.54)
    (stroke (width 0) (type default))
    (uuid 71033555-bc30-4bd4-8351-61a09326701e)
  )
  (bus_entry (at 88.9 60.96) (size 2.54 -2.54)
    (stroke (width 0) (type default))
    (uuid 728baa93-6777-4b24-9527-e9f11ce38f1a)
  )
  (bus_entry (at 152.4 60.96) (size 2.54 -2.54)
    (stroke (width 0) (type default))
    (uuid 73695015-1e69-4d65-9dba-9dc4cb6e4443)
  )
  (bus_entry (at 88.9 93.98) (size 2.54 -2.54)
    (stroke (width 0) (type default))
    (uuid 749818e9-47c0-4b66-8b62-b6998c06fc68)
  )
  (bus_entry (at 152.4 88.9) (size 2.54 -2.54)
    (stroke (width 0) (type default))
    (uuid 76a0fc22-bc32-440f-b18b-2d5c4cbabb5d)
  )
  (bus_entry (at 88.9 104.14) (size 2.54 -2.54)
    (stroke (width 0) (type default))
    (uuid 79d7c301-bfb2-4221-a2de-55ab2e2d2f8a)
  )
  (bus_entry (at 139.7 111.76) (size -2.54 -2.54)
    (stroke (width 0) (type default))
    (uuid 7c95d5c9-e6b2-493f-9e6d-19bd84d4d0e5)
  )
  (bus_entry (at 88.9 63.5) (size 2.54 -2.54)
    (stroke (width 0) (type default))
    (uuid 85d95511-bb16-4073-a63c-593deb3fb27e)
  )
  (bus_entry (at 193.04 123.19) (size -2.54 -2.54)
    (stroke (width 0) (type default))
    (uuid 8691b4a2-10c6-47c5-8afe-47da51cf5ccd)
  )
  (bus_entry (at 152.4 58.42) (size 2.54 -2.54)
    (stroke (width 0) (type default))
    (uuid 8fae57c7-8f3d-4222-ae81-74cae112f8d9)
  )
  (bus_entry (at 88.9 68.58) (size 2.54 -2.54)
    (stroke (width 0) (type default))
    (uuid 95b59998-e824-48e3-a851-a50994d363d7)
  )
  (bus_entry (at 88.9 55.88) (size 2.54 -2.54)
    (stroke (width 0) (type default))
    (uuid 96805942-f1a6-47b0-9595-5da0655686f9)
  )
  (bus_entry (at 88.9 78.74) (size 2.54 -2.54)
    (stroke (width 0) (type default))
    (uuid 96ac7197-f369-4ec0-9bce-268cb1ced893)
  )
  (bus_entry (at 193.04 93.98) (size -2.54 -2.54)
    (stroke (width 0) (type default))
    (uuid 9f38642b-499d-483b-8455-e960ba952a23)
  )
  (bus_entry (at 88.9 66.04) (size 2.54 -2.54)
    (stroke (width 0) (type default))
    (uuid a3feb60e-b3bb-4af7-b9fc-e3ac08c5d805)
  )
  (bus_entry (at 193.04 60.96) (size -2.54 -2.54)
    (stroke (width 0) (type default))
    (uuid a7a78acd-b8b2-4fbc-a773-257006aac4b9)
  )
  (bus_entry (at 193.04 68.58) (size -2.54 -2.54)
    (stroke (width 0) (type default))
    (uuid adf560d4-0797-4b10-9122-8db25ab8c88d)
  )
  (bus_entry (at 88.9 101.6) (size 2.54 -2.54)
    (stroke (width 0) (type default))
    (uuid b61f4fc3-8b95-4caa-ba64-161960f630a8)
  )
  (bus_entry (at 193.04 53.34) (size -2.54 -2.54)
    (stroke (width 0) (type default))
    (uuid b7be43b8-06fe-46b0-8acc-a5f3f6a5b43d)
  )
  (bus_entry (at 152.4 76.2) (size 2.54 -2.54)
    (stroke (width 0) (type default))
    (uuid b7f668bc-2248-49a2-b1b2-664c289e602f)
  )
  (bus_entry (at 152.4 86.36) (size 2.54 -2.54)
    (stroke (width 0) (type default))
    (uuid c400bd9c-0ad7-46a1-88b6-cf0298b21a07)
  )
  (bus_entry (at 152.4 71.12) (size 2.54 -2.54)
    (stroke (width 0) (type default))
    (uuid c4263126-14fb-452b-814b-a3b5c7c8b218)
  )
  (bus_entry (at 88.9 58.42) (size 2.54 -2.54)
    (stroke (width 0) (type default))
    (uuid c71416f6-bcf3-406b-a04c-6ef4399727e9)
  )
  (bus_entry (at 152.4 63.5) (size 2.54 -2.54)
    (stroke (width 0) (type default))
    (uuid c786879d-4819-4964-a55a-ea6800515c87)
  )
  (bus_entry (at 152.4 91.44) (size 2.54 -2.54)
    (stroke (width 0) (type default))
    (uuid c98fef5e-b544-443e-96a7-10c89fc52599)
  )
  (bus_entry (at 139.7 88.9) (size -2.54 -2.54)
    (stroke (width 0) (type default))
    (uuid cb57dc96-0527-43a2-a999-89ac6dc35473)
  )
  (bus_entry (at 152.4 83.82) (size 2.54 -2.54)
    (stroke (width 0) (type default))
    (uuid cfa60bb2-dc81-46fe-8b61-d4db6017b37c)
  )
  (bus_entry (at 193.04 86.36) (size -2.54 -2.54)
    (stroke (width 0) (type default))
    (uuid d12d45f8-cfb6-4f9e-9c32-a4ed4cea2022)
  )
  (bus_entry (at 193.04 99.06) (size -2.54 -2.54)
    (stroke (width 0) (type default))
    (uuid d15a0733-236f-4457-83c8-594d02adddb7)
  )
  (bus_entry (at 139.7 99.06) (size -2.54 -2.54)
    (stroke (width 0) (type default))
    (uuid d217cf59-d1f5-4e3a-a2c5-a9ff6b70ec07)
  )
  (bus_entry (at 88.9 106.68) (size 2.54 -2.54)
    (stroke (width 0) (type default))
    (uuid d3acf9d2-3daa-4d23-b6f1-41683871ab37)
  )
  (bus_entry (at 193.04 91.44) (size -2.54 -2.54)
    (stroke (width 0) (type default))
    (uuid d3ff327b-451e-45c8-988c-c935d0cd2da7)
  )
  (bus_entry (at 88.9 81.28) (size 2.54 -2.54)
    (stroke (width 0) (type default))
    (uuid d6a35336-2ce3-418a-98a7-c45c6759f443)
  )
  (bus_entry (at 152.4 99.06) (size 2.54 -2.54)
    (stroke (width 0) (type default))
    (uuid d9e13ef3-a30c-4aa7-94d5-1e7b7f6a7f9f)
  )
  (bus_entry (at 193.04 125.73) (size -2.54 -2.54)
    (stroke (width 0) (type default))
    (uuid dc0414b8-775c-417f-9fbd-718d3ca6a69b)
  )
  (bus_entry (at 88.9 71.12) (size 2.54 -2.54)
    (stroke (width 0) (type default))
    (uuid de56b698-a0ab-4103-99ad-dd4e1aaa1037)
  )
  (bus_entry (at 152.4 66.04) (size 2.54 -2.54)
    (stroke (width 0) (type default))
    (uuid df4640cd-9c0c-4144-ae16-458fce70e2b2)
  )
  (bus_entry (at 193.04 66.04) (size -2.54 -2.54)
    (stroke (width 0) (type default))
    (uuid dfaf6d69-3af2-433e-8f22-ac347e194030)
  )
  (bus_entry (at 193.04 88.9) (size -2.54 -2.54)
    (stroke (width 0) (type default))
    (uuid e0e282c9-4c43-4223-b555-e42f7a4a6bb1)
  )
  (bus_entry (at 193.04 73.66) (size -2.54 -2.54)
    (stroke (width 0) (type default))
    (uuid e23e02f5-3268-41a5-b53e-47a228abae3f)
  )
  (bus_entry (at 193.04 76.2) (size -2.54 -2.54)
    (stroke (width 0) (type default))
    (uuid e2ac7331-1f14-4c0a-896a-2f30072fa98b)
  )
  (bus_entry (at 139.7 104.14) (size -2.54 -2.54)
    (stroke (width 0) (type default))
    (uuid e74b3a8a-f500-4190-b401-847cc4a5baf3)
  )
  (bus_entry (at 193.04 71.12) (size -2.54 -2.54)
    (stroke (width 0) (type default))
    (uuid e9cde73f-294b-4872-90c2-6b04ff68b35c)
  )
  (bus_entry (at 152.4 96.52) (size 2.54 -2.54)
    (stroke (width 0) (type default))
    (uuid ee8e489f-d2e0-4c9f-9803-296c6ee42362)
  )
  (bus_entry (at 88.9 91.44) (size 2.54 -2.54)
    (stroke (width 0) (type default))
    (uuid ef462a2b-3712-4391-a40a-2adf31bdb46c)
  )
  (bus_entry (at 152.4 123.19) (size 2.54 -2.54)
    (stroke (width 0) (type default))
    (uuid f2e2a523-f9fe-41eb-aeac-dbbb5add870f)
  )
  (bus_entry (at 88.9 111.76) (size 2.54 -2.54)
    (stroke (width 0) (type default))
    (uuid f656aed0-e578-400d-ad8a-398e84fe63a7)
  )
  (bus_entry (at 152.4 53.34) (size 2.54 -2.54)
    (stroke (width 0) (type default))
    (uuid f96a9fdd-8852-4dc7-9305-8ea3184075b1)
  )
  (bus_entry (at 193.04 58.42) (size -2.54 -2.54)
    (stroke (width 0) (type default))
    (uuid f9b542f0-8033-4b72-94b5-f3bc73d9063c)
  )
  (bus_entry (at 139.7 96.52) (size -2.54 -2.54)
    (stroke (width 0) (type default))
    (uuid fd752543-5857-4c44-befb-57b62e8f7878)
  )
  (bus_entry (at 88.9 73.66) (size 2.54 -2.54)
    (stroke (width 0) (type default))
    (uuid fe0386b8-b645-40d5-b870-4d1a94116312)
  )

  (bus (pts (xy 139.7 104.14) (xy 139.7 109.22))
    (stroke (width 0) (type default))
    (uuid 012fdcce-c554-4086-adc9-7f45a60df3f7)
  )

  (wire (pts (xy 154.94 96.52) (xy 166.37 96.52))
    (stroke (width 0) (type default))
    (uuid 020f592b-0430-422d-b174-4da2c77bc255)
  )
  (wire (pts (xy 154.94 55.88) (xy 166.37 55.88))
    (stroke (width 0) (type default))
    (uuid 04be7d1b-5a35-49f2-8fde-3a4c95d6a356)
  )
  (bus (pts (xy 139.7 38.1) (xy 139.7 53.34))
    (stroke (width 0) (type default))
    (uuid 05465a78-a66c-479b-b077-af41533c9dbe)
  )
  (bus (pts (xy 139.7 96.52) (xy 139.7 99.06))
    (stroke (width 0) (type default))
    (uuid 0643ee49-600e-44e2-9f24-8877da1c3227)
  )

  (wire (pts (xy 154.94 68.58) (xy 166.37 68.58))
    (stroke (width 0) (type default))
    (uuid 06b94085-4f89-4046-aa9e-5767f4ecb920)
  )
  (bus (pts (xy 152.4 71.12) (xy 152.4 73.66))
    (stroke (width 0) (type default))
    (uuid 06ea07dd-2794-48d3-a097-ed87d91b49e7)
  )
  (bus (pts (xy 139.7 109.22) (xy 139.7 111.76))
    (stroke (width 0) (type default))
    (uuid 094fdd45-4979-4e98-9bee-2579f11a8ea6)
  )

  (wire (pts (xy 165.1 76.2) (xy 165.1 102.87))
    (stroke (width 0) (type default))
    (uuid 0a045ba3-54b9-4449-9a5b-35f7aceb8861)
  )
  (bus (pts (xy 152.4 38.1) (xy 193.04 38.1))
    (stroke (width 0) (type default))
    (uuid 0af59b85-2c31-49b7-b58c-ee87e256b2e4)
  )

  (wire (pts (xy 179.07 73.66) (xy 190.5 73.66))
    (stroke (width 0) (type default))
    (uuid 0b1e554c-987b-4627-941a-a002dfc2c305)
  )
  (bus (pts (xy 193.04 99.06) (xy 193.04 123.19))
    (stroke (width 0) (type default))
    (uuid 0b9bbe2a-ac72-4491-a87a-d407140df227)
  )

  (wire (pts (xy 91.44 96.52) (xy 102.87 96.52))
    (stroke (width 0) (type default))
    (uuid 0c01de65-cf48-4288-a070-b98d7c67e070)
  )
  (wire (pts (xy 91.44 88.9) (xy 102.87 88.9))
    (stroke (width 0) (type default))
    (uuid 0eef492c-f372-4c51-b3aa-80fe2654280f)
  )
  (bus (pts (xy 139.7 55.88) (xy 139.7 60.96))
    (stroke (width 0) (type default))
    (uuid 109bd25b-6817-4859-8325-b4ea1091c4b9)
  )
  (bus (pts (xy 88.9 88.9) (xy 88.9 91.44))
    (stroke (width 0) (type default))
    (uuid 128f070c-725c-4a0b-8376-35f77656a1b1)
  )
  (bus (pts (xy 88.9 106.68) (xy 88.9 109.22))
    (stroke (width 0) (type default))
    (uuid 130d8281-ccc5-4d9e-a8b5-0e389655d9fd)
  )

  (wire (pts (xy 125.73 86.36) (xy 137.16 86.36))
    (stroke (width 0) (type default))
    (uuid 13671005-db48-4969-880b-ecd718318abc)
  )
  (wire (pts (xy 125.73 50.8) (xy 137.16 50.8))
    (stroke (width 0) (type default))
    (uuid 1602fa87-c13a-4e80-b44a-9a49c32621c8)
  )
  (wire (pts (xy 125.73 96.52) (xy 137.16 96.52))
    (stroke (width 0) (type default))
    (uuid 16231a20-067c-472f-8b55-6fd2b93b7525)
  )
  (wire (pts (xy 154.94 88.9) (xy 166.37 88.9))
    (stroke (width 0) (type default))
    (uuid 163bac54-8357-4ee9-9242-486665ea9fd7)
  )
  (wire (pts (xy 91.44 50.8) (xy 102.87 50.8))
    (stroke (width 0) (type default))
    (uuid 1727b99d-30f0-4eb9-98db-e669a97bf18a)
  )
  (wire (pts (xy 179.07 86.36) (xy 190.5 86.36))
    (stroke (width 0) (type default))
    (uuid 18bddcbd-c9bd-4dff-bd94-ae9ab9fa6c71)
  )
  (wire (pts (xy 179.07 83.82) (xy 190.5 83.82))
    (stroke (width 0) (type default))
    (uuid 1d591f7a-fff5-4eff-af46-f327aada2675)
  )
  (bus (pts (xy 193.04 58.42) (xy 193.04 60.96))
    (stroke (width 0) (type default))
    (uuid 1e9c469f-b770-42c1-b2c5-55641a53b8bf)
  )

  (wire (pts (xy 179.07 53.34) (xy 190.5 53.34))
    (stroke (width 0) (type default))
    (uuid 1eabe28f-dc6c-4f7d-beba-ba2a43340bca)
  )
  (wire (pts (xy 91.44 78.74) (xy 102.87 78.74))
    (stroke (width 0) (type default))
    (uuid 21e0e608-ade1-4fc8-a38c-bbb81c27d446)
  )
  (wire (pts (xy 125.73 60.96) (xy 137.16 60.96))
    (stroke (width 0) (type default))
    (uuid 22a71b1a-1b0e-4dda-a35b-3bdc68d78f9d)
  )
  (bus (pts (xy 193.04 91.44) (xy 193.04 93.98))
    (stroke (width 0) (type default))
    (uuid 266ca15b-9f36-41eb-8fb3-23cf491cadab)
  )

  (wire (pts (xy 154.94 128.27) (xy 166.37 128.27))
    (stroke (width 0) (type default))
    (uuid 271ae648-35ee-479b-a5c8-40e369c3e589)
  )
  (bus (pts (xy 139.7 38.1) (xy 152.4 38.1))
    (stroke (width 0) (type default))
    (uuid 2a3542c0-1cf8-4551-b28a-94e3ad16772c)
  )

  (wire (pts (xy 166.37 76.2) (xy 165.1 76.2))
    (stroke (width 0) (type default))
    (uuid 2a6a8842-5040-440b-ac0c-82f799742638)
  )
  (wire (pts (xy 160.02 123.19) (xy 160.02 125.73))
    (stroke (width 0) (type default))
    (uuid 2b226291-0fbf-49e7-83b7-c608829372ad)
  )
  (bus (pts (xy 193.04 88.9) (xy 193.04 91.44))
    (stroke (width 0) (type default))
    (uuid 2ba088ce-c6af-4f40-8e8d-3ba473977a8b)
  )
  (bus (pts (xy 88.9 60.96) (xy 88.9 63.5))
    (stroke (width 0) (type default))
    (uuid 2c52bb13-3a19-4c0f-af33-9687a1346828)
  )
  (bus (pts (xy 193.04 96.52) (xy 193.04 99.06))
    (stroke (width 0) (type default))
    (uuid 2de78f26-04d1-45e5-83f2-474815a10b4c)
  )

  (wire (pts (xy 160.02 125.73) (xy 166.37 125.73))
    (stroke (width 0) (type default))
    (uuid 3049a66e-c28e-42ce-89d8-9336f11dfd8f)
  )
  (bus (pts (xy 88.9 99.06) (xy 88.9 101.6))
    (stroke (width 0) (type default))
    (uuid 307f6e75-1148-403f-b6ba-8427595af8ce)
  )

  (wire (pts (xy 91.44 99.06) (xy 102.87 99.06))
    (stroke (width 0) (type default))
    (uuid 317276e7-3cbe-43d9-ba63-f969fcf50f48)
  )
  (bus (pts (xy 139.7 88.9) (xy 139.7 91.44))
    (stroke (width 0) (type default))
    (uuid 32b81fb5-0c6c-4667-a794-751bf3fe413e)
  )
  (bus (pts (xy 139.7 101.6) (xy 139.7 104.14))
    (stroke (width 0) (type default))
    (uuid 340760b8-1c27-40cf-b580-02495453e001)
  )
  (bus (pts (xy 152.4 60.96) (xy 152.4 63.5))
    (stroke (width 0) (type default))
    (uuid 35688dbc-ce75-4ffe-b8b9-9b05b9aafb96)
  )

  (wire (pts (xy 154.94 99.06) (xy 166.37 99.06))
    (stroke (width 0) (type default))
    (uuid 356a9168-9a12-4162-9c62-a216d0e9c3ba)
  )
  (wire (pts (xy 154.94 63.5) (xy 166.37 63.5))
    (stroke (width 0) (type default))
    (uuid 3605d3eb-4ab2-4874-b593-58ecc8840aca)
  )
  (bus (pts (xy 152.4 83.82) (xy 152.4 86.36))
    (stroke (width 0) (type default))
    (uuid 3796e603-0a4d-4f2d-b900-30a6a09674ea)
  )
  (bus (pts (xy 88.9 96.52) (xy 88.9 99.06))
    (stroke (width 0) (type default))
    (uuid 37f5425e-7e2f-426a-a64d-0d6c65a9bde7)
  )
  (bus (pts (xy 152.4 91.44) (xy 152.4 93.98))
    (stroke (width 0) (type default))
    (uuid 38ae12c7-1180-42dd-be4b-568af9c00dbe)
  )

  (wire (pts (xy 125.73 104.14) (xy 135.255 104.14))
    (stroke (width 0) (type default))
    (uuid 3ddac212-19c2-45e9-9e58-0e29df31fe07)
  )
  (wire (pts (xy 91.44 55.88) (xy 102.87 55.88))
    (stroke (width 0) (type default))
    (uuid 40cdfdd3-428d-475f-a32c-d0a1a6479f0b)
  )
  (wire (pts (xy 91.44 76.2) (xy 102.87 76.2))
    (stroke (width 0) (type default))
    (uuid 426fa657-0bf2-4330-8dde-6c82c52c0fd2)
  )
  (wire (pts (xy 179.07 88.9) (xy 190.5 88.9))
    (stroke (width 0) (type default))
    (uuid 43a5dcd0-d771-4317-b277-89bf0a80afde)
  )
  (wire (pts (xy 91.44 93.98) (xy 102.87 93.98))
    (stroke (width 0) (type default))
    (uuid 4648f55c-a239-4c37-a4fe-8c645443a97e)
  )
  (wire (pts (xy 125.73 101.6) (xy 137.16 101.6))
    (stroke (width 0) (type default))
    (uuid 473bd4fa-74f7-43fb-828f-26315a532d2f)
  )
  (bus (pts (xy 139.7 91.44) (xy 139.7 93.98))
    (stroke (width 0) (type default))
    (uuid 47698e87-62b1-4506-9b13-7ec621330fb3)
  )

  (wire (pts (xy 154.94 53.34) (xy 166.37 53.34))
    (stroke (width 0) (type default))
    (uuid 47ffba3f-7c89-471b-be06-233b042b7fc5)
  )
  (wire (pts (xy 179.07 93.98) (xy 190.5 93.98))
    (stroke (width 0) (type default))
    (uuid 489a41cb-18b9-430c-88d0-4dcc68d80763)
  )
  (wire (pts (xy 125.73 63.5) (xy 137.16 63.5))
    (stroke (width 0) (type default))
    (uuid 4a3f4054-e5ec-4810-9b63-ba46e5c662f2)
  )
  (wire (pts (xy 125.73 93.98) (xy 137.16 93.98))
    (stroke (width 0) (type default))
    (uuid 4ae6cddc-bc4a-481a-8c20-737b602c5b5c)
  )
  (bus (pts (xy 152.4 101.6) (xy 152.4 123.19))
    (stroke (width 0) (type default))
    (uuid 4c9ab841-d349-46ed-a8fc-7ed36b04c005)
  )
  (bus (pts (xy 139.7 60.96) (xy 139.7 63.5))
    (stroke (width 0) (type default))
    (uuid 50038e54-6efc-446c-bbdb-be6d08b686d7)
  )
  (bus (pts (xy 193.04 55.88) (xy 193.04 58.42))
    (stroke (width 0) (type default))
    (uuid 50588349-f3ae-4f9a-8ce5-ad25c492c22b)
  )
  (bus (pts (xy 88.9 91.44) (xy 88.9 93.98))
    (stroke (width 0) (type default))
    (uuid 505905a9-5f73-4e9e-a8db-29eaf13d8842)
  )

  (wire (pts (xy 179.07 78.74) (xy 190.5 78.74))
    (stroke (width 0) (type default))
    (uuid 538416d1-7e3d-429f-865b-c731633cd256)
  )
  (wire (pts (xy 179.07 71.12) (xy 190.5 71.12))
    (stroke (width 0) (type default))
    (uuid 56a90f64-b9ad-4826-b5dd-0ccc125785eb)
  )
  (bus (pts (xy 139.7 83.82) (xy 139.7 86.36))
    (stroke (width 0) (type default))
    (uuid 56ef4e33-e25e-4751-94d4-9f137de07231)
  )

  (wire (pts (xy 91.44 58.42) (xy 102.87 58.42))
    (stroke (width 0) (type default))
    (uuid 576d6a5f-4946-43ab-be17-5b73766eb7ca)
  )
  (bus (pts (xy 152.4 76.2) (xy 152.4 81.28))
    (stroke (width 0) (type default))
    (uuid 5916cbf4-df16-446c-8392-b4d2ec868f39)
  )
  (bus (pts (xy 193.04 60.96) (xy 193.04 63.5))
    (stroke (width 0) (type default))
    (uuid 592e7d4e-f3e1-48d5-8f4c-537808eda1fb)
  )

  (wire (pts (xy 179.07 50.8) (xy 190.5 50.8))
    (stroke (width 0) (type default))
    (uuid 5fed5abe-6ee8-42c5-b79c-3af7a11d4e59)
  )
  (wire (pts (xy 125.73 55.88) (xy 135.255 55.88))
    (stroke (width 0) (type default))
    (uuid 6378a0cc-ff4d-4a72-801b-4d017fd743f5)
  )
  (wire (pts (xy 125.73 53.34) (xy 137.16 53.34))
    (stroke (width 0) (type default))
    (uuid 66b0e417-bb4b-43f7-8488-66b00473aeb4)
  )
  (bus (pts (xy 193.04 71.12) (xy 193.04 73.66))
    (stroke (width 0) (type default))
    (uuid 67191787-9547-4b4e-a6d2-63fbf06b6d03)
  )
  (bus (pts (xy 139.7 38.1) (xy 88.9 38.1))
    (stroke (width 0) (type default))
    (uuid 6991fc17-da6d-4a2d-ae43-0f7d31f351ef)
  )

  (wire (pts (xy 154.94 60.96) (xy 166.37 60.96))
    (stroke (width 0) (type default))
    (uuid 69b4a744-e821-4228-a5e8-93b7c293abe4)
  )
  (wire (pts (xy 160.02 125.73) (xy 160.02 130.81))
    (stroke (width 0) (type default))
    (uuid 6b2a7d32-8361-401a-865f-5396ba826af9)
  )
  (wire (pts (xy 154.94 50.8) (xy 166.37 50.8))
    (stroke (width 0) (type default))
    (uuid 6c8a03af-7eb1-4395-9aa5-d1bb436803c7)
  )
  (wire (pts (xy 186.69 99.06) (xy 186.69 102.87))
    (stroke (width 0) (type default))
    (uuid 6e19d5d1-46ff-436e-938c-045af27d618e)
  )
  (bus (pts (xy 152.4 93.98) (xy 152.4 96.52))
    (stroke (width 0) (type default))
    (uuid 6eef177f-1f64-46ad-83a1-df33b98f6f2a)
  )

  (wire (pts (xy 179.07 68.58) (xy 190.5 68.58))
    (stroke (width 0) (type default))
    (uuid 6fdb1408-e295-4bbe-9be6-76f3e6ff853c)
  )
  (wire (pts (xy 135.255 55.88) (xy 135.255 104.14))
    (stroke (width 0) (type default))
    (uuid 7387fdf0-296e-463a-a8cf-0816ab75e7d5)
  )
  (wire (pts (xy 154.94 58.42) (xy 166.37 58.42))
    (stroke (width 0) (type default))
    (uuid 75d8f609-37f5-4eea-8d0b-d4b7db4b8f62)
  )
  (wire (pts (xy 154.94 78.74) (xy 166.37 78.74))
    (stroke (width 0) (type default))
    (uuid 764697f5-dd08-4178-bba9-9ed7519ccc74)
  )
  (wire (pts (xy 154.94 71.12) (xy 166.37 71.12))
    (stroke (width 0) (type default))
    (uuid 7770a965-cddf-455d-8a93-d1d2b50dc68a)
  )
  (wire (pts (xy 135.255 104.14) (xy 135.255 115.57))
    (stroke (width 0) (type default))
    (uuid 78e8e568-91da-4dbc-9f82-ba601d442969)
  )
  (bus (pts (xy 152.4 68.58) (xy 152.4 71.12))
    (stroke (width 0) (type default))
    (uuid 79979669-fa99-4f83-a1ac-8bdf3ffce68c)
  )

  (wire (pts (xy 180.34 76.2) (xy 180.34 102.87))
    (stroke (width 0) (type default))
    (uuid 79d1a91d-7cd3-454b-b385-55ae8f8d779d)
  )
  (bus (pts (xy 139.7 71.12) (xy 139.7 73.66))
    (stroke (width 0) (type default))
    (uuid 79f1f83d-40f0-4333-a198-8051e123babd)
  )
  (bus (pts (xy 152.4 53.34) (xy 152.4 55.88))
    (stroke (width 0) (type default))
    (uuid 7d147292-d9f9-4e59-b924-2bc8823bde8b)
  )

  (wire (pts (xy 91.44 71.12) (xy 102.87 71.12))
    (stroke (width 0) (type default))
    (uuid 7d4f9eac-510f-49a4-bf09-09bafbd95883)
  )
  (wire (pts (xy 91.44 109.22) (xy 102.87 109.22))
    (stroke (width 0) (type default))
    (uuid 81d09be2-b951-4d70-8107-322b83586bb4)
  )
  (wire (pts (xy 125.73 83.82) (xy 137.16 83.82))
    (stroke (width 0) (type default))
    (uuid 84d61674-a8f0-4509-8021-b30aa2a03836)
  )
  (bus (pts (xy 152.4 55.88) (xy 152.4 58.42))
    (stroke (width 0) (type default))
    (uuid 87cd3758-6c2e-4cde-a8f6-eba7108d84ca)
  )
  (bus (pts (xy 139.7 68.58) (xy 139.7 71.12))
    (stroke (width 0) (type default))
    (uuid 87d6bbb5-0d7d-444d-97e8-fe36c5d189a2)
  )

  (wire (pts (xy 91.44 66.04) (xy 102.87 66.04))
    (stroke (width 0) (type default))
    (uuid 8800a590-ca28-4ffa-b682-905f8bbe7b01)
  )
  (bus (pts (xy 139.7 63.5) (xy 139.7 66.04))
    (stroke (width 0) (type default))
    (uuid 89f5fd68-fde7-456d-9df2-4e7b90cc2474)
  )

  (wire (pts (xy 136.525 78.74) (xy 125.73 78.74))
    (stroke (width 0) (type default))
    (uuid 8ad5d630-a094-4194-bd4b-2076edd7b2f2)
  )
  (bus (pts (xy 88.9 109.22) (xy 88.9 111.76))
    (stroke (width 0) (type default))
    (uuid 8ad9691b-ce0b-481a-b267-f9f6f4ede2ea)
  )
  (bus (pts (xy 88.9 93.98) (xy 88.9 96.52))
    (stroke (width 0) (type default))
    (uuid 8adf4d19-267b-49d1-8714-70e5fdfe6322)
  )
  (bus (pts (xy 152.4 96.52) (xy 152.4 99.06))
    (stroke (width 0) (type default))
    (uuid 8b6cc866-61f4-4445-9f12-6a425afda13d)
  )
  (bus (pts (xy 88.9 81.28) (xy 88.9 88.9))
    (stroke (width 0) (type default))
    (uuid 8d3c7505-88c0-4300-ac88-a41cbee43b29)
  )
  (bus (pts (xy 193.04 73.66) (xy 193.04 76.2))
    (stroke (width 0) (type default))
    (uuid 8dbdee80-af8f-43f1-930c-8754043ced6a)
  )

  (wire (pts (xy 91.44 104.14) (xy 102.87 104.14))
    (stroke (width 0) (type default))
    (uuid 90301048-afd0-4267-b067-48eea89ae45d)
  )
  (bus (pts (xy 88.9 53.34) (xy 88.9 55.88))
    (stroke (width 0) (type default))
    (uuid 9128fd71-8499-48f7-a17c-d7fce8cd69c1)
  )
  (bus (pts (xy 139.7 86.36) (xy 139.7 88.9))
    (stroke (width 0) (type default))
    (uuid 9477a752-5250-48b2-b799-5112301ce3fe)
  )

  (wire (pts (xy 179.07 120.65) (xy 190.5 120.65))
    (stroke (width 0) (type default))
    (uuid 96228673-5921-441e-8b00-d79c437a2df7)
  )
  (wire (pts (xy 125.73 66.04) (xy 137.16 66.04))
    (stroke (width 0) (type default))
    (uuid 9629fe9f-f5e3-46ee-958f-c039d41bdb76)
  )
  (wire (pts (xy 179.07 91.44) (xy 190.5 91.44))
    (stroke (width 0) (type default))
    (uuid 9719e9b6-9cf2-4a37-a40a-8559e6fdd3a6)
  )
  (wire (pts (xy 125.73 99.06) (xy 137.16 99.06))
    (stroke (width 0) (type default))
    (uuid 97395bc6-ad74-4c5c-b4cb-24f8515d4952)
  )
  (bus (pts (xy 88.9 104.14) (xy 88.9 106.68))
    (stroke (width 0) (type default))
    (uuid 98391330-5bea-4e24-9994-67e521f37737)
  )

  (wire (pts (xy 154.94 83.82) (xy 166.37 83.82))
    (stroke (width 0) (type default))
    (uuid 99f05d60-3e8b-4ba4-8bac-cdd802e616df)
  )
  (bus (pts (xy 193.04 125.73) (xy 193.04 128.27))
    (stroke (width 0) (type default))
    (uuid 9a757f2a-713c-4e19-8c49-49f70e318ff3)
  )
  (bus (pts (xy 152.4 66.04) (xy 152.4 68.58))
    (stroke (width 0) (type default))
    (uuid 9cf82690-3e3e-45b0-b23d-01ae1922677e)
  )
  (bus (pts (xy 193.04 83.82) (xy 193.04 86.36))
    (stroke (width 0) (type default))
    (uuid 9d3d5e6b-489f-430f-9f7b-1165e3acdb4f)
  )

  (wire (pts (xy 136.525 46.355) (xy 136.525 78.74))
    (stroke (width 0) (type default))
    (uuid a10496a3-f9fa-4695-941b-260530c26191)
  )
  (wire (pts (xy 154.94 86.36) (xy 166.37 86.36))
    (stroke (width 0) (type default))
    (uuid a12bf5f3-f6fc-4e91-a7de-d4f5a519b455)
  )
  (bus (pts (xy 193.04 38.1) (xy 193.04 53.34))
    (stroke (width 0) (type default))
    (uuid a15c8725-3dc4-4407-a6d5-fed1f3e700a6)
  )
  (bus (pts (xy 193.04 66.04) (xy 193.04 68.58))
    (stroke (width 0) (type default))
    (uuid a29a5d37-4b34-40b5-a800-10f92570fa17)
  )
  (bus (pts (xy 88.9 68.58) (xy 88.9 71.12))
    (stroke (width 0) (type default))
    (uuid a7b7e758-5a13-4836-9786-b4ad693dffc3)
  )

  (wire (pts (xy 125.73 109.22) (xy 137.16 109.22))
    (stroke (width 0) (type default))
    (uuid a86a0d16-fa02-4cea-9d59-606328816f00)
  )
  (bus (pts (xy 152.4 123.19) (xy 152.4 130.81))
    (stroke (width 0) (type default))
    (uuid aa4989e0-9098-4223-ad6b-1c3c7b963e0a)
  )

  (wire (pts (xy 154.94 91.44) (xy 166.37 91.44))
    (stroke (width 0) (type default))
    (uuid aaaae7dd-387a-4f35-b93a-5f3c18204768)
  )
  (wire (pts (xy 91.44 60.96) (xy 102.87 60.96))
    (stroke (width 0) (type default))
    (uuid ae3dd60c-0782-4864-bc50-c752367b4262)
  )
  (bus (pts (xy 152.4 63.5) (xy 152.4 66.04))
    (stroke (width 0) (type default))
    (uuid af9a2b61-8ffb-4960-85e5-f39a3f927ebf)
  )
  (bus (pts (xy 193.04 53.34) (xy 193.04 55.88))
    (stroke (width 0) (type default))
    (uuid aff140c8-e6ac-40f7-b4b6-e4608122e320)
  )

  (wire (pts (xy 125.73 81.28) (xy 137.16 81.28))
    (stroke (width 0) (type default))
    (uuid b0ba4947-e66d-4fca-9ee6-b024785f49fe)
  )
  (bus (pts (xy 193.04 86.36) (xy 193.04 88.9))
    (stroke (width 0) (type default))
    (uuid b0ca2c68-dfa1-4be1-bb62-41925c148797)
  )
  (bus (pts (xy 88.9 38.1) (xy 88.9 53.34))
    (stroke (width 0) (type default))
    (uuid b11d60c6-863b-41ec-8650-edd814b77dc5)
  )
  (bus (pts (xy 152.4 99.06) (xy 152.4 101.6))
    (stroke (width 0) (type default))
    (uuid b33c12d7-d416-4352-90a3-33495ef09582)
  )

  (wire (pts (xy 91.44 101.6) (xy 102.87 101.6))
    (stroke (width 0) (type default))
    (uuid b4668085-7460-48dc-ab17-1db0f8b6071b)
  )
  (wire (pts (xy 179.07 63.5) (xy 190.5 63.5))
    (stroke (width 0) (type default))
    (uuid b49bbd2d-40da-4ae4-90cc-8009648bdca1)
  )
  (wire (pts (xy 91.44 106.68) (xy 102.87 106.68))
    (stroke (width 0) (type default))
    (uuid b5739636-aab0-48a6-bb36-d2e4d43b56c3)
  )
  (wire (pts (xy 154.94 93.98) (xy 166.37 93.98))
    (stroke (width 0) (type default))
    (uuid ba246635-1e84-413d-8379-1bc9177963eb)
  )
  (bus (pts (xy 193.04 63.5) (xy 193.04 66.04))
    (stroke (width 0) (type default))
    (uuid be363638-724c-409b-9b57-44ef2375719c)
  )

  (wire (pts (xy 125.73 68.58) (xy 137.16 68.58))
    (stroke (width 0) (type default))
    (uuid c098aa46-23ea-4816-bc11-84012c60b0bc)
  )
  (bus (pts (xy 152.4 73.66) (xy 152.4 76.2))
    (stroke (width 0) (type default))
    (uuid c0a6c5be-14f0-498f-8485-fee4e569e3bf)
  )

  (wire (pts (xy 154.94 66.04) (xy 166.37 66.04))
    (stroke (width 0) (type default))
    (uuid c196d04f-63d1-4b44-adbe-b9e565ecefdb)
  )
  (bus (pts (xy 88.9 73.66) (xy 88.9 78.74))
    (stroke (width 0) (type default))
    (uuid c3f9b253-78d5-4b72-a793-da4e984f68b6)
  )

  (wire (pts (xy 154.94 120.65) (xy 166.37 120.65))
    (stroke (width 0) (type default))
    (uuid c524d183-f409-4883-a833-e0a17c79ae41)
  )
  (wire (pts (xy 179.07 99.06) (xy 186.69 99.06))
    (stroke (width 0) (type default))
    (uuid c7715f0d-f285-4d50-aca0-d8f4f5c7c528)
  )
  (bus (pts (xy 88.9 78.74) (xy 88.9 81.28))
    (stroke (width 0) (type default))
    (uuid c80d0423-8e4a-4ba1-bc74-1ba20b96f1d4)
  )
  (bus (pts (xy 88.9 63.5) (xy 88.9 66.04))
    (stroke (width 0) (type default))
    (uuid c83128b7-192d-4027-9ef7-2e7aaa5a6370)
  )
  (bus (pts (xy 88.9 66.04) (xy 88.9 68.58))
    (stroke (width 0) (type default))
    (uuid cbeaceb1-8bba-4cd9-8278-65332e42fcba)
  )

  (wire (pts (xy 179.07 76.2) (xy 180.34 76.2))
    (stroke (width 0) (type default))
    (uuid cc4764e0-0b15-4838-9b0e-b1cc6cbf001b)
  )
  (wire (pts (xy 125.73 73.66) (xy 137.16 73.66))
    (stroke (width 0) (type default))
    (uuid cce2761f-2987-449e-869d-4dfe4724018d)
  )
  (bus (pts (xy 139.7 99.06) (xy 139.7 101.6))
    (stroke (width 0) (type default))
    (uuid cdfe18aa-1f4d-4f2b-a0aa-e01396dd4bd4)
  )

  (wire (pts (xy 91.44 63.5) (xy 102.87 63.5))
    (stroke (width 0) (type default))
    (uuid ce175aec-c42d-4a41-a1f8-f599710e0159)
  )
  (bus (pts (xy 139.7 53.34) (xy 139.7 55.88))
    (stroke (width 0) (type default))
    (uuid ceb7ef92-a9bc-4c31-932a-fe8670894205)
  )

  (wire (pts (xy 166.37 123.19) (xy 160.02 123.19))
    (stroke (width 0) (type default))
    (uuid cf0304c3-8f3e-407e-ada5-aa07eeeb4132)
  )
  (bus (pts (xy 88.9 71.12) (xy 88.9 73.66))
    (stroke (width 0) (type default))
    (uuid d19a9050-29d0-4772-9a30-967cf53fc77d)
  )

  (wire (pts (xy 179.07 123.19) (xy 190.5 123.19))
    (stroke (width 0) (type default))
    (uuid d1bc670c-54b4-488e-9fd4-24b0e319cd1f)
  )
  (wire (pts (xy 91.44 86.36) (xy 102.87 86.36))
    (stroke (width 0) (type default))
    (uuid d50f1d80-c84d-428c-81f6-7556f111a392)
  )
  (bus (pts (xy 88.9 58.42) (xy 88.9 60.96))
    (stroke (width 0) (type default))
    (uuid d643f549-2a4e-427a-b72a-77cbabe7bb5d)
  )

  (wire (pts (xy 91.44 91.44) (xy 102.87 91.44))
    (stroke (width 0) (type default))
    (uuid d67760eb-9359-47ce-9c7a-033fd87d3fa9)
  )
  (wire (pts (xy 125.73 106.68) (xy 137.16 106.68))
    (stroke (width 0) (type default))
    (uuid dc7528e9-6929-4aac-85fe-1b164b8f3b1f)
  )
  (wire (pts (xy 179.07 66.04) (xy 190.5 66.04))
    (stroke (width 0) (type default))
    (uuid de906390-6c12-4b0e-ace2-7fb073fe42a2)
  )
  (wire (pts (xy 154.94 81.28) (xy 166.37 81.28))
    (stroke (width 0) (type default))
    (uuid e014a163-f8d8-4773-a7ea-3e024edc23a4)
  )
  (wire (pts (xy 91.44 53.34) (xy 102.87 53.34))
    (stroke (width 0) (type default))
    (uuid e0dee0a1-2a7a-4930-aaef-12c9d482d800)
  )
  (bus (pts (xy 152.4 86.36) (xy 152.4 88.9))
    (stroke (width 0) (type default))
    (uuid e30c1fc1-10c7-40ea-9cfc-ac64075ae7e8)
  )

  (wire (pts (xy 125.73 76.2) (xy 137.16 76.2))
    (stroke (width 0) (type default))
    (uuid e36a7f8a-0869-42f3-b66d-3136287712b0)
  )
  (wire (pts (xy 91.44 68.58) (xy 102.87 68.58))
    (stroke (width 0) (type default))
    (uuid e45558f9-ce51-42e1-81d8-0f253024d898)
  )
  (wire (pts (xy 125.73 71.12) (xy 137.16 71.12))
    (stroke (width 0) (type default))
    (uuid e4f05903-6245-4c2c-a255-f74a5944897d)
  )
  (bus (pts (xy 152.4 38.1) (xy 152.4 53.34))
    (stroke (width 0) (type default))
    (uuid e638ec9c-923d-4e6c-9f3d-982f7c39edb2)
  )
  (bus (pts (xy 152.4 58.42) (xy 152.4 60.96))
    (stroke (width 0) (type default))
    (uuid e79fcecd-fe69-47b9-9277-73a278f56409)
  )

  (wire (pts (xy 125.73 88.9) (xy 137.16 88.9))
    (stroke (width 0) (type default))
    (uuid e7e24961-466e-4ade-8f90-1ddca4518cd4)
  )
  (bus (pts (xy 88.9 101.6) (xy 88.9 104.14))
    (stroke (width 0) (type default))
    (uuid e92d4bc9-eae2-40b2-9a9a-aaf340cdd22d)
  )

  (wire (pts (xy 125.73 91.44) (xy 137.16 91.44))
    (stroke (width 0) (type default))
    (uuid e9ce2765-6be7-445e-b389-cd99d96f85cf)
  )
  (wire (pts (xy 179.07 125.73) (xy 190.5 125.73))
    (stroke (width 0) (type default))
    (uuid eb275807-aadb-4f7c-9549-3950d979e687)
  )
  (bus (pts (xy 193.04 81.28) (xy 193.04 83.82))
    (stroke (width 0) (type default))
    (uuid ebab5004-73ec-4b90-9bba-5ad47d4eee02)
  )
  (bus (pts (xy 152.4 88.9) (xy 152.4 91.44))
    (stroke (width 0) (type default))
    (uuid ebd1e72a-468f-44e3-9515-86198601677b)
  )

  (wire (pts (xy 125.73 58.42) (xy 137.16 58.42))
    (stroke (width 0) (type default))
    (uuid ecc6a4f9-37de-4ff1-b9f3-b28a528f5911)
  )
  (wire (pts (xy 154.94 73.66) (xy 166.37 73.66))
    (stroke (width 0) (type default))
    (uuid efc05830-d698-48ed-adfb-d401af523d95)
  )
  (bus (pts (xy 139.7 76.2) (xy 139.7 78.74))
    (stroke (width 0) (type default))
    (uuid f0fb43c8-4cfd-4e28-864f-d7ed6ad55a3c)
  )

  (wire (pts (xy 179.07 58.42) (xy 190.5 58.42))
    (stroke (width 0) (type default))
    (uuid f12c471a-378c-460b-80a4-f8a8ec7b96d1)
  )
  (bus (pts (xy 139.7 78.74) (xy 139.7 83.82))
    (stroke (width 0) (type default))
    (uuid f217b515-8cc8-4f59-b249-0bf0be54ba6d)
  )
  (bus (pts (xy 152.4 81.28) (xy 152.4 83.82))
    (stroke (width 0) (type default))
    (uuid f2374b39-76b0-44d8-81a5-eedbb32a50f3)
  )
  (bus (pts (xy 139.7 73.66) (xy 139.7 76.2))
    (stroke (width 0) (type default))
    (uuid f256d58b-0e73-4db3-b9fb-17391f67e158)
  )
  (bus (pts (xy 139.7 93.98) (xy 139.7 96.52))
    (stroke (width 0) (type default))
    (uuid f30537d7-0864-4b9d-bdc0-2d7baa228021)
  )
  (bus (pts (xy 193.04 93.98) (xy 193.04 96.52))
    (stroke (width 0) (type default))
    (uuid f3813a33-fa96-452b-bbeb-3d5bf6e83e22)
  )

  (wire (pts (xy 179.07 81.28) (xy 190.5 81.28))
    (stroke (width 0) (type default))
    (uuid f5845de7-bdc1-484b-9e4e-d9a3bd3e16c2)
  )
  (bus (pts (xy 139.7 66.04) (xy 139.7 68.58))
    (stroke (width 0) (type default))
    (uuid f8596f5b-40a3-455c-af34-118e46be4c0f)
  )
  (bus (pts (xy 88.9 55.88) (xy 88.9 58.42))
    (stroke (width 0) (type default))
    (uuid f92384b8-4a0a-4ee1-804b-f4217054690a)
  )
  (bus (pts (xy 193.04 68.58) (xy 193.04 71.12))
    (stroke (width 0) (type default))
    (uuid f9e1be76-0ea8-4f1a-9aec-bbb4451bb679)
  )

  (wire (pts (xy 179.07 60.96) (xy 190.5 60.96))
    (stroke (width 0) (type default))
    (uuid fb01146b-77f4-4b69-b9d2-a1831c2cec8b)
  )
  (bus (pts (xy 193.04 76.2) (xy 193.04 81.28))
    (stroke (width 0) (type default))
    (uuid fb33edf9-3dc3-49aa-a620-e8d64192c0bc)
  )

  (wire (pts (xy 179.07 55.88) (xy 190.5 55.88))
    (stroke (width 0) (type default))
    (uuid fbd6166a-e5a5-4aa5-b35d-50b3b8cba757)
  )
  (bus (pts (xy 193.04 123.19) (xy 193.04 125.73))
    (stroke (width 0) (type default))
    (uuid fcb682e5-7165-45be-b2fe-f8d6f30dfbdb)
  )

  (wire (pts (xy 179.07 96.52) (xy 190.5 96.52))
    (stroke (width 0) (type default))
    (uuid fe73ca1d-3aca-404a-936f-4f72275b2a58)
  )

  (label "MEM.D0" (at 125.73 99.06 0) (fields_autoplaced)
    (effects (font (size 1.27 1.27)) (justify left bottom))
    (uuid 033fb5c6-f83e-4fcc-a164-6689a387d95a)
  )
  (label "MEM.A13" (at 91.44 55.88 0) (fields_autoplaced)
    (effects (font (size 1.27 1.27)) (justify left bottom))
    (uuid 036b3b34-8e8c-4937-a8c4-44c441fa9c7a)
  )
  (label "MEM.A13" (at 179.07 63.5 0) (fields_autoplaced)
    (effects (font (size 1.27 1.27)) (justify left bottom))
    (uuid 0b23bb4d-5ce3-4d0c-b6d5-5c518558a8b4)
  )
  (label "MEM.A11" (at 179.07 58.42 0) (fields_autoplaced)
    (effects (font (size 1.27 1.27)) (justify left bottom))
    (uuid 0c1f1247-34e8-417c-909e-8a25aec6912e)
  )
  (label "MEM.A9" (at 91.44 66.04 0) (fields_autoplaced)
    (effects (font (size 1.27 1.27)) (justify left bottom))
    (uuid 0f750a01-c934-4971-ad1f-a94d8df0c8b3)
  )
  (label "MEM.A10" (at 179.07 55.88 0) (fields_autoplaced)
    (effects (font (size 1.27 1.27)) (justify left bottom))
    (uuid 107c7f07-ddab-4908-94a0-f8bb34a638f2)
  )
  (label "MEM.D7" (at 125.73 60.96 0) (fields_autoplaced)
    (effects (font (size 1.27 1.27)) (justify left bottom))
    (uuid 13993097-d634-4aaf-a682-7b415d0cc37e)
  )
  (label "MEM.A15" (at 179.07 68.58 0) (fields_autoplaced)
    (effects (font (size 1.27 1.27)) (justify left bottom))
    (uuid 16fec1a8-4c21-4138-b028-9d829460450e)
  )
  (label "MEM.A7" (at 91.44 93.98 0) (fields_autoplaced)
    (effects (font (size 1.27 1.27)) (justify left bottom))
    (uuid 19993123-c486-4822-a08a-1dd3eaff1c70)
  )
  (label "MEM.D4" (at 125.73 76.2 0) (fields_autoplaced)
    (effects (font (size 1.27 1.27)) (justify left bottom))
    (uuid 1f92e550-5a01-4598-894c-89b9340fb778)
  )
  (label "MEM.D5" (at 179.07 91.44 0) (fields_autoplaced)
    (effects (font (size 1.27 1.27)) (justify left bottom))
    (uuid 228e5079-c66b-4cef-a260-06e2a8e4e815)
  )
  (label "MEM.~{CE}" (at 125.73 106.68 0) (fields_autoplaced)
    (effects (font (size 1.27 1.27)) (justify left bottom))
    (uuid 2638768d-afad-4fb8-adfd-1b51868e9809)
  )
  (label "MEM.D6" (at 179.07 86.36 0) (fields_autoplaced)
    (effects (font (size 1.27 1.27)) (justify left bottom))
    (uuid 271365ec-0a15-4c4d-9dcc-12f8ad8826d4)
  )
  (label "MEM.D4" (at 179.07 96.52 0) (fields_autoplaced)
    (effects (font (size 1.27 1.27)) (justify left bottom))
    (uuid 27a983dc-5d47-479f-9773-9b5c68b45074)
  )
  (label "MEM.D9" (at 154.94 88.9 0) (fields_autoplaced)
    (effects (font (size 1.27 1.27)) (justify left bottom))
    (uuid 27aa3916-d4b3-4f29-b68a-a6c6a03ac9ae)
  )
  (label "MEM.A9" (at 179.07 53.34 0) (fields_autoplaced)
    (effects (font (size 1.27 1.27)) (justify left bottom))
    (uuid 2f7cdfc8-0ace-466d-9eaa-17afda6ef4a3)
  )
  (label "MEM.A11" (at 91.44 60.96 0) (fields_autoplaced)
    (effects (font (size 1.27 1.27)) (justify left bottom))
    (uuid 33558bc5-d0ff-41ac-a680-7f0cc44faaaf)
  )
  (label "MEM.D1" (at 154.94 86.36 0) (fields_autoplaced)
    (effects (font (size 1.27 1.27)) (justify left bottom))
    (uuid 35398153-3516-4768-8a56-d36d9098d050)
  )
  (label "MEM.A14" (at 91.44 53.34 0) (fields_autoplaced)
    (effects (font (size 1.27 1.27)) (justify left bottom))
    (uuid 3d9d2781-5b00-4e3b-90c4-933e828939e3)
  )
  (label "MEM.~{CE}" (at 154.94 73.66 0) (fields_autoplaced)
    (effects (font (size 1.27 1.27)) (justify left bottom))
    (uuid 423571b4-a2c3-457c-abb0-e2171822297c)
  )
  (label "MEM.A18" (at 91.44 88.9 0) (fields_autoplaced)
    (effects (font (size 1.27 1.27)) (justify left bottom))
    (uuid 433584d7-4753-4f67-b25e-2c366528fd45)
  )
  (label "MEM.A19" (at 154.94 120.65 0) (fields_autoplaced)
    (effects (font (size 1.27 1.27)) (justify left bottom))
    (uuid 452d53dc-c0d2-4e10-8593-bb5ea0e163ca)
  )
  (label "MEM.A8" (at 91.44 68.58 0) (fields_autoplaced)
    (effects (font (size 1.27 1.27)) (justify left bottom))
    (uuid 48e57603-2156-43c3-a31a-6ac681452026)
  )
  (label "MEM.A15" (at 91.44 50.8 0) (fields_autoplaced)
    (effects (font (size 1.27 1.27)) (justify left bottom))
    (uuid 4a048c67-a747-4593-aab2-94f1a3d5f167)
  )
  (label "MEM.A6" (at 154.94 55.88 0) (fields_autoplaced)
    (effects (font (size 1.27 1.27)) (justify left bottom))
    (uuid 4d732cc4-c950-4e22-8507-e8e96374a561)
  )
  (label "MEM.A16" (at 125.73 50.8 0) (fields_autoplaced)
    (effects (font (size 1.27 1.27)) (justify left bottom))
    (uuid 4e411568-8c99-4207-8931-b0cbc94ec463)
  )
  (label "MEM.~{WE}" (at 179.07 120.65 0) (fields_autoplaced)
    (effects (font (size 1.27 1.27)) (justify left bottom))
    (uuid 5e3e9a0e-75de-4e71-aaed-be7da40e43cc)
  )
  (label "MEM.~{OE}" (at 154.94 78.74 0) (fields_autoplaced)
    (effects (font (size 1.27 1.27)) (justify left bottom))
    (uuid 608564e4-af91-478c-9bd5-d64db7131962)
  )
  (label "MEM.~{Byte}" (at 125.73 53.34 0) (fields_autoplaced)
    (effects (font (size 1.27 1.27)) (justify left bottom))
    (uuid 60f599cc-48c1-4cd5-956a-b29ba664d7e4)
  )
  (label "MEM.A14" (at 179.07 66.04 0) (fields_autoplaced)
    (effects (font (size 1.27 1.27)) (justify left bottom))
    (uuid 6255120f-65f9-45c5-bc8d-be7cde0d69b0)
  )
  (label "MEM.A1" (at 154.94 68.58 0) (fields_autoplaced)
    (effects (font (size 1.27 1.27)) (justify left bottom))
    (uuid 62a719ea-c3b8-4dcb-9182-93ee6c4ef09e)
  )
  (label "MEM.A16" (at 179.07 71.12 0) (fields_autoplaced)
    (effects (font (size 1.27 1.27)) (justify left bottom))
    (uuid 62c3e29f-6fa0-45cd-a5ed-d41eb9416398)
  )
  (label "MEM.A3" (at 154.94 63.5 0) (fields_autoplaced)
    (effects (font (size 1.27 1.27)) (justify left bottom))
    (uuid 641d6850-375a-4b35-8e88-4b1352224d17)
  )
  (label "MEM.D3" (at 125.73 83.82 0) (fields_autoplaced)
    (effects (font (size 1.27 1.27)) (justify left bottom))
    (uuid 6cd67efd-c205-4927-ae47-ef4c45734a0d)
  )
  (label "MEM.A7" (at 154.94 53.34 0) (fields_autoplaced)
    (effects (font (size 1.27 1.27)) (justify left bottom))
    (uuid 721dff72-3bb9-49e8-91fa-7549dae456c5)
  )
  (label "MEM.D6" (at 125.73 66.04 0) (fields_autoplaced)
    (effects (font (size 1.27 1.27)) (justify left bottom))
    (uuid 73a269d0-af7f-4a2c-9121-f0990a0f5aa8)
  )
  (label "MEM.A18" (at 154.94 128.27 0) (fields_autoplaced)
    (effects (font (size 1.27 1.27)) (justify left bottom))
    (uuid 7686140f-1db4-4013-b546-20b326210a5a)
  )
  (label "MEM.A2" (at 154.94 66.04 0) (fields_autoplaced)
    (effects (font (size 1.27 1.27)) (justify left bottom))
    (uuid 78e771ae-c44c-418a-9f55-213dd292a893)
  )
  (label "MEM.~{WE}" (at 91.44 76.2 0) (fields_autoplaced)
    (effects (font (size 1.27 1.27)) (justify left bottom))
    (uuid 794b9d1f-ffbe-46a0-b4bc-42b35973a0e7)
  )
  (label "MEM.D8" (at 154.94 83.82 0) (fields_autoplaced)
    (effects (font (size 1.27 1.27)) (justify left bottom))
    (uuid 799fbd25-1d80-4608-b295-c2f255893a60)
  )
  (label "MEM.RY{slash}~{BY}" (at 179.07 125.73 0) (fields_autoplaced)
    (effects (font (size 1.27 1.27)) (justify left bottom))
    (uuid 8280b793-201e-4091-bb8d-378c72841e54)
  )
  (label "MEM.RY{slash}~{BY}" (at 91.44 86.36 0) (fields_autoplaced)
    (effects (font (size 1.27 1.27)) (justify left bottom))
    (uuid 847c9e2c-210c-449b-bee4-c3bf1fd71ef3)
  )
  (label "MEM.A0" (at 154.94 71.12 0) (fields_autoplaced)
    (effects (font (size 1.27 1.27)) (justify left bottom))
    (uuid 86f0388b-0697-47ac-8bd8-71b45e4223e9)
  )
  (label "MEM.~{Byte}" (at 179.07 73.66 0) (fields_autoplaced)
    (effects (font (size 1.27 1.27)) (justify left bottom))
    (uuid 86f08a25-6223-4a9c-a5cd-56ad3dcdc2a4)
  )
  (label "MEM.D2" (at 154.94 91.44 0) (fields_autoplaced)
    (effects (font (size 1.27 1.27)) (justify left bottom))
    (uuid 87ddf367-0f44-49e4-8006-320cc0f4d005)
  )
  (label "MEM.D11" (at 154.94 99.06 0) (fields_autoplaced)
    (effects (font (size 1.27 1.27)) (justify left bottom))
    (uuid 8e84a0b6-1ae9-4edc-a35c-f8c601193d0c)
  )
  (label "MEM.~{Reset}" (at 179.07 123.19 0) (fields_autoplaced)
    (effects (font (size 1.27 1.27)) (justify left bottom))
    (uuid 9210bffe-789d-4c67-8934-562b3268c6c1)
  )
  (label "MEM.D3" (at 154.94 96.52 0) (fields_autoplaced)
    (effects (font (size 1.27 1.27)) (justify left bottom))
    (uuid 94b75fd6-af90-47c7-b02c-4ddf39beb897)
  )
  (label "MEM.A12" (at 91.44 58.42 0) (fields_autoplaced)
    (effects (font (size 1.27 1.27)) (justify left bottom))
    (uuid 95ad4e72-b97c-4045-ad87-7a058851c577)
  )
  (label "MEM.D8" (at 125.73 96.52 0) (fields_autoplaced)
    (effects (font (size 1.27 1.27)) (justify left bottom))
    (uuid 9f313e45-581a-4278-b06a-8d7058d45eb0)
  )
  (label "MEM.D14" (at 179.07 83.82 0) (fields_autoplaced)
    (effects (font (size 1.27 1.27)) (justify left bottom))
    (uuid 9f92b017-7998-405e-ace3-b5168f0c0c7c)
  )
  (label "MEM.D0" (at 154.94 81.28 0) (fields_autoplaced)
    (effects (font (size 1.27 1.27)) (justify left bottom))
    (uuid a7b58d27-13e4-4eb9-ba10-4c9d7eb08854)
  )
  (label "MEM.A0" (at 125.73 109.22 0) (fields_autoplaced)
    (effects (font (size 1.27 1.27)) (justify left bottom))
    (uuid aade47dc-c25e-4152-87e1-a4b8df83f991)
  )
  (label "MEM.D1" (at 125.73 93.98 0) (fields_autoplaced)
    (effects (font (size 1.27 1.27)) (justify left bottom))
    (uuid ab70f8f3-6f56-4ba1-bd69-eab5062412c5)
  )
  (label "MEM.D9" (at 125.73 91.44 0) (fields_autoplaced)
    (effects (font (size 1.27 1.27)) (justify left bottom))
    (uuid af60a73a-c2a7-4208-9526-dafab6497388)
  )
  (label "MEM.A1" (at 91.44 109.22 0) (fields_autoplaced)
    (effects (font (size 1.27 1.27)) (justify left bottom))
    (uuid b24801e6-e03d-4a86-9dbb-86076d031b19)
  )
  (label "MEM.D13" (at 179.07 88.9 0) (fields_autoplaced)
    (effects (font (size 1.27 1.27)) (justify left bottom))
    (uuid b3f3ccfb-4015-42ab-bb80-bdd3f7e95a9e)
  )
  (label "MEM.A17" (at 154.94 50.8 0) (fields_autoplaced)
    (effects (font (size 1.27 1.27)) (justify left bottom))
    (uuid b4be80ed-e898-4b7c-aa8e-563fa0ae1454)
  )
  (label "MEM.A6" (at 91.44 96.52 0) (fields_autoplaced)
    (effects (font (size 1.27 1.27)) (justify left bottom))
    (uuid b80e89ac-fdb6-4b16-8473-d956ba1df698)
  )
  (label "MEM.A12" (at 179.07 60.96 0) (fields_autoplaced)
    (effects (font (size 1.27 1.27)) (justify left bottom))
    (uuid bb86dacc-c484-4785-870e-5d1b5baac549)
  )
  (label "MEM.D12" (at 125.73 73.66 0) (fields_autoplaced)
    (effects (font (size 1.27 1.27)) (justify left bottom))
    (uuid be39f6a7-c3c9-40c2-9ac0-0ada91ec87db)
  )
  (label "MEM.D11" (at 125.73 81.28 0) (fields_autoplaced)
    (effects (font (size 1.27 1.27)) (justify left bottom))
    (uuid c01d7f54-58bb-4899-afd1-af7d9e92fb35)
  )
  (label "MEM.A8" (at 179.07 50.8 0) (fields_autoplaced)
    (effects (font (size 1.27 1.27)) (justify left bottom))
    (uuid c0d6cf70-56c7-4c9b-8cc4-d4c8e9c885ac)
  )
  (label "MEM.D7" (at 179.07 81.28 0) (fields_autoplaced)
    (effects (font (size 1.27 1.27)) (justify left bottom))
    (uuid c134474a-d8fa-4b60-8a9c-f01c451ed7cd)
  )
  (label "MEM.D15" (at 179.07 78.74 0) (fields_autoplaced)
    (effects (font (size 1.27 1.27)) (justify left bottom))
    (uuid c50e996d-41b3-4190-bd92-9d780b7066b4)
  )
  (label "MEM.D14" (at 125.73 63.5 0) (fields_autoplaced)
    (effects (font (size 1.27 1.27)) (justify left bottom))
    (uuid c585bd77-dbbd-47ee-87b9-1f87879a75df)
  )
  (label "MEM.A19" (at 91.44 71.12 0) (fields_autoplaced)
    (effects (font (size 1.27 1.27)) (justify left bottom))
    (uuid c919a403-3f53-43d3-9a17-cc6936436058)
  )
  (label "MEM.A17" (at 91.44 91.44 0) (fields_autoplaced)
    (effects (font (size 1.27 1.27)) (justify left bottom))
    (uuid ca372357-e0cc-4b19-bd6e-3fe1c43557de)
  )
  (label "MEM.D12" (at 179.07 93.98 0) (fields_autoplaced)
    (effects (font (size 1.27 1.27)) (justify left bottom))
    (uuid cc93828a-d3a3-42ef-960c-7e92779e1849)
  )
  (label "MEM.A4" (at 154.94 60.96 0) (fields_autoplaced)
    (effects (font (size 1.27 1.27)) (justify left bottom))
    (uuid cd712546-525b-4ecf-bad3-0f6b3f9bd710)
  )
  (label "MEM.A2" (at 91.44 106.68 0) (fields_autoplaced)
    (effects (font (size 1.27 1.27)) (justify left bottom))
    (uuid ce579b6e-6191-4cf7-827d-7d50b7533f16)
  )
  (label "MEM.A4" (at 91.44 101.6 0) (fields_autoplaced)
    (effects (font (size 1.27 1.27)) (justify left bottom))
    (uuid cf38367f-9228-4aeb-ba1a-b98eccb3024b)
  )
  (label "MEM.D15" (at 125.73 58.42 0) (fields_autoplaced)
    (effects (font (size 1.27 1.27)) (justify left bottom))
    (uuid d3230aef-c727-4181-8dc3-a619d181081b)
  )
  (label "MEM.D10" (at 154.94 93.98 0) (fields_autoplaced)
    (effects (font (size 1.27 1.27)) (justify left bottom))
    (uuid d6e7a98b-f60d-46e2-adf7-0ab458690950)
  )
  (label "MEM{D[0..15] A[0..19] ~{WE} ~{CE} ~{OE} ~{Byte} ~{Reset} RY{slash}~{BY}}"
    (at 88.9 38.1 0) (fields_autoplaced)
    (effects (font (size 1.27 1.27)) (justify left bottom))
    (uuid d7d7f99b-a3c8-4a7f-b97f-532f891a6b52)
  )
  (label "MEM.A10" (at 91.44 63.5 0) (fields_autoplaced)
    (effects (font (size 1.27 1.27)) (justify left bottom))
    (uuid de1bdd02-8e32-49da-975e-3826bb22e0a9)
  )
  (label "MEM.A5" (at 91.44 99.06 0) (fields_autoplaced)
    (effects (font (size 1.27 1.27)) (justify left bottom))
    (uuid df6f2c53-7538-411a-82b9-3972c62da418)
  )
  (label "MEM.A3" (at 91.44 104.14 0) (fields_autoplaced)
    (effects (font (size 1.27 1.27)) (justify left bottom))
    (uuid e248c89b-b167-496c-ae10-a55587163e6e)
  )
  (label "MEM.D10" (at 125.73 86.36 0) (fields_autoplaced)
    (effects (font (size 1.27 1.27)) (justify left bottom))
    (uuid e56429a4-8f52-42c0-9039-586bc396e41a)
  )
  (label "MEM.~{Reset}" (at 91.44 78.74 0) (fields_autoplaced)
    (effects (font (size 1.27 1.27)) (justify left bottom))
    (uuid ecd947ee-a128-4955-b70e-02d7a993360d)
  )
  (label "MEM.D2" (at 125.73 88.9 0) (fields_autoplaced)
    (effects (font (size 1.27 1.27)) (justify left bottom))
    (uuid ed141a39-a83e-4530-a866-f51d45239fe9)
  )
  (label "MEM.~{OE}" (at 125.73 101.6 0) (fields_autoplaced)
    (effects (font (size 1.27 1.27)) (justify left bottom))
    (uuid f4697689-8f29-44a9-9a9a-190e6e692475)
  )
  (label "MEM.A5" (at 154.94 58.42 0) (fields_autoplaced)
    (effects (font (size 1.27 1.27)) (justify left bottom))
    (uuid f8478f22-432e-4f4b-9816-6af23206924d)
  )
  (label "MEM.D5" (at 125.73 71.12 0) (fields_autoplaced)
    (effects (font (size 1.27 1.27)) (justify left bottom))
    (uuid ff25e2b7-11f0-49ce-9fa8-0ca8b3ffee30)
  )
  (label "MEM.D13" (at 125.73 68.58 0) (fields_autoplaced)
    (effects (font (size 1.27 1.27)) (justify left bottom))
    (uuid ff8ef14b-0f3a-42ff-a61a-af06ea405e50)
  )

  (symbol (lib_id "Connector_Generic:Conn_01x24") (at 107.95 78.74 0) (unit 1)
    (in_bom yes) (on_board yes) (dnp no)
    (uuid 01619b18-9247-4ca2-b41c-7ad66f8b0991)
    (property "Reference" "J1" (at 111.125 78.74 0)
      (effects (font (size 1.27 1.27)) (justify left))
    )
    (property "Value" "Conn_01x22" (at 109.982 81.1777 0)
      (effects (font (size 1.27 1.27)) (justify left) hide)
    )
    (property "Footprint" "Connector_PinHeader_2.54mm:PinHeader_1x24_P2.54mm_Vertical" (at 107.95 78.74 0)
      (effects (font (size 1.27 1.27)) hide)
    )
    (property "Datasheet" "~" (at 107.95 78.74 0)
      (effects (font (size 1.27 1.27)) hide)
    )
    (pin "1" (uuid a277c87e-e4f5-4a5f-a19c-99080db45627))
    (pin "10" (uuid 87a76021-2b46-48b8-a98c-3185254727a7))
    (pin "11" (uuid 95b1162e-5439-47d2-873b-c44925555d33))
    (pin "12" (uuid d7ba3397-dfab-494e-b5a9-fe1c3c2ffa29))
    (pin "13" (uuid 6f262ee0-6b69-4b77-8bb4-030a7905738b))
    (pin "14" (uuid a603a751-01a3-4dd5-9f8d-311febdc785b))
    (pin "15" (uuid 439072a4-0630-4afd-bc2d-00bf13a07854))
    (pin "16" (uuid 1e358c54-5383-490b-ab64-d6323f63be55))
    (pin "17" (uuid 0d0cad6c-fe47-40da-a475-da4273f7f424))
    (pin "18" (uuid af6eca8f-47d6-4d47-8b32-18a9c504b647))
    (pin "19" (uuid c0d554ed-4dea-4f68-9558-eaa0c3575bae))
    (pin "2" (uuid 2a20efa6-8670-4869-af9b-a7af2e49bd9c))
    (pin "20" (uuid 6ebef9a7-fe14-48a8-b27a-15ba8acf230e))
    (pin "21" (uuid 5fb9f555-2bde-4690-abdb-bf6dc329a319))
    (pin "22" (uuid 21f165c0-2250-4101-809c-8aa048ed3fb8))
    (pin "23" (uuid 6c2a657f-7734-43fa-b648-4f94a060c619))
    (pin "24" (uuid 450fa0f8-e0b7-483c-a38f-fe8f5f5b1a4e))
    (pin "3" (uuid 851d347b-0ae2-454b-b05d-361df1dc3e44))
    (pin "4" (uuid 4fe89d7f-ea6a-4a98-9cd7-bf6f16522b9e))
    (pin "5" (uuid c5ee5dc6-0789-4c30-97f0-e85133f8eb03))
    (pin "6" (uuid fb9b3cd6-7e19-4241-976d-2c5263b2b00b))
    (pin "7" (uuid 8455fa8b-2300-4cbd-ad2b-33289b43e906))
    (pin "8" (uuid 84fbec36-2c91-4c3e-82ef-1d90c0012fd4))
    (pin "9" (uuid 002a6e7a-f88e-4d29-b9a6-cab774777930))
    (instances
      (project "Amiga_27C400_Emulator_Adapter"
        (path "/83fb4473-b9bd-4da9-920e-764db8ea9029"
          (reference "J1") (unit 1)
        )
      )
    )
  )

  (symbol (lib_id "power:+5V") (at 186.69 102.87 180) (unit 1)
    (in_bom yes) (on_board yes) (dnp no) (fields_autoplaced)
    (uuid 08976dbd-621e-4d6e-ad2a-4dbffdfb26b4)
    (property "Reference" "#U0104" (at 186.69 99.06 0)
      (effects (font (size 1.27 1.27)) hide)
    )
    (property "Value" "+5V" (at 188.087 104.4266 0)
      (effects (font (size 1.27 1.27)) (justify right))
    )
    (property "Footprint" "" (at 186.69 102.87 0)
      (effects (font (size 1.27 1.27)) hide)
    )
    (property "Datasheet" "" (at 186.69 102.87 0)
      (effects (font (size 1.27 1.27)) hide)
    )
    (pin "1" (uuid da198a9f-5bb1-4b4a-974c-d74a999091d0))
    (instances
      (project "Amiga_27C400_Emulator_Adapter"
        (path "/83fb4473-b9bd-4da9-920e-764db8ea9029"
          (reference "#U0104") (unit 1)
        )
      )
    )
  )

  (symbol (lib_id "Connector_Generic:Conn_01x24") (at 120.65 81.28 180) (unit 1)
    (in_bom yes) (on_board yes) (dnp no)
    (uuid 0d18b063-6361-48f2-8c23-b6e2594e9642)
    (property "Reference" "J2" (at 116.84 78.74 0)
      (effects (font (size 1.27 1.27)))
    )
    (property "Value" "Conn_01x22" (at 120.65 51.0001 0)
      (effects (font (size 1.27 1.27)) hide)
    )
    (property "Footprint" "Connector_PinHeader_2.54mm:PinHeader_1x24_P2.54mm_Vertical" (at 120.65 81.28 0)
      (effects (font (size 1.27 1.27)) hide)
    )
    (property "Datasheet" "~" (at 120.65 81.28 0)
      (effects (font (size 1.27 1.27)) hide)
    )
    (pin "1" (uuid ec2e45c9-5cc1-428b-a611-7aefdb31b30e))
    (pin "10" (uuid a5fd9366-588f-492a-b34f-bb008fea48a7))
    (pin "11" (uuid 302f0dac-c49a-4331-b4cd-529c14c816cc))
    (pin "12" (uuid 54405225-3d3f-41d5-b3ad-983fbda928dc))
    (pin "13" (uuid f542fc26-6f82-456a-a49c-5b61bd6ea12a))
    (pin "14" (uuid 26ae3344-876a-4d98-8a59-fd04ac3e9b71))
    (pin "15" (uuid bc068486-a92d-4500-8f9b-1aecf356bd81))
    (pin "16" (uuid 7e77effb-5c12-4893-98ca-71b1ebe8dc26))
    (pin "17" (uuid 7c69536d-4752-4dfe-8015-6298b941c540))
    (pin "18" (uuid 786e0b42-ef7e-4f26-af6d-48d2fbf78765))
    (pin "19" (uuid 2809b6b4-e25e-4444-ae1f-cc0f55c40652))
    (pin "2" (uuid a707bc18-3881-480d-9916-ff0593db4db3))
    (pin "20" (uuid 69d1a618-c3e3-42f8-854e-28e0e5342540))
    (pin "21" (uuid 5b79c7cf-2b97-46bc-a261-41c0823cd5f5))
    (pin "22" (uuid 1818412f-27db-4fc0-8f67-82aa53d09525))
    (pin "23" (uuid 0117874b-8427-4190-bcde-95ef2024f252))
    (pin "24" (uuid 32418840-7f9a-4e2a-89ca-76b3424ae298))
    (pin "3" (uuid 0af7fe72-06ff-4475-a021-c150b48a7b87))
    (pin "4" (uuid f761cba5-0a17-44db-95f8-95cd3aaa7c24))
    (pin "5" (uuid 9f14bfb6-dec0-4d83-8672-8dc6079ce393))
    (pin "6" (uuid 6ba0b621-b2fe-41d9-90d9-f9f8f3c9a827))
    (pin "7" (uuid 13e16d74-4bf4-4ebb-b382-d31bb702c99e))
    (pin "8" (uuid 1f92962b-d880-4aaf-9778-ec3b17b75a40))
    (pin "9" (uuid 864d5c88-48a0-4f16-8412-41ab3b05ed95))
    (instances
      (project "Amiga_27C400_Emulator_Adapter"
        (path "/83fb4473-b9bd-4da9-920e-764db8ea9029"
          (reference "J2") (unit 1)
        )
      )
    )
  )

  (symbol (lib_id "power:GND") (at 180.34 102.87 0) (unit 1)
    (in_bom yes) (on_board yes) (dnp no) (fields_autoplaced)
    (uuid 1c0e8b9d-582e-4559-b567-bf3cd80ce42e)
    (property "Reference" "#U0103" (at 180.34 109.22 0)
      (effects (font (size 1.27 1.27)) hide)
    )
    (property "Value" "GND" (at 180.34 106.9261 0)
      (effects (font (size 1.27 1.27)))
    )
    (property "Footprint" "" (at 180.34 102.87 0)
      (effects (font (size 1.27 1.27)) hide)
    )
    (property "Datasheet" "" (at 180.34 102.87 0)
      (effects (font (size 1.27 1.27)) hide)
    )
    (pin "1" (uuid 2c9674fe-4dbe-42c5-a3d3-c088b826d4bf))
    (instances
      (project "Amiga_27C400_Emulator_Adapter"
        (path "/83fb4473-b9bd-4da9-920e-764db8ea9029"
          (reference "#U0103") (unit 1)
        )
      )
    )
  )

  (symbol (lib_id "power:GND") (at 160.02 130.81 0) (unit 1)
    (in_bom yes) (on_board yes) (dnp no) (fields_autoplaced)
    (uuid 21e45972-78cb-49e8-a315-17fc3c575ef6)
    (property "Reference" "#U0101" (at 160.02 137.16 0)
      (effects (font (size 1.27 1.27)) hide)
    )
    (property "Value" "GND" (at 160.02 134.8661 0)
      (effects (font (size 1.27 1.27)))
    )
    (property "Footprint" "" (at 160.02 130.81 0)
      (effects (font (size 1.27 1.27)) hide)
    )
    (property "Datasheet" "" (at 160.02 130.81 0)
      (effects (font (size 1.27 1.27)) hide)
    )
    (pin "1" (uuid eb53f040-ce03-4ede-a9e5-419e642ebe63))
    (instances
      (project "Amiga_27C400_Emulator_Adapter"
        (path "/83fb4473-b9bd-4da9-920e-764db8ea9029"
          (reference "#U0101") (unit 1)
        )
      )
    )
  )

  (symbol (lib_id "power:GND") (at 165.1 102.87 0) (unit 1)
    (in_bom yes) (on_board yes) (dnp no) (fields_autoplaced)
    (uuid 60f32c06-db52-4d27-94b3-3e8172985afa)
    (property "Reference" "#U0102" (at 165.1 109.22 0)
      (effects (font (size 1.27 1.27)) hide)
    )
    (property "Value" "GND" (at 165.1 106.9261 0)
      (effects (font (size 1.27 1.27)))
    )
    (property "Footprint" "" (at 165.1 102.87 0)
      (effects (font (size 1.27 1.27)) hide)
    )
    (property "Datasheet" "" (at 165.1 102.87 0)
      (effects (font (size 1.27 1.27)) hide)
    )
    (pin "1" (uuid 763a8217-f5c7-4080-bd9a-51ac828cab04))
    (instances
      (project "Amiga_27C400_Emulator_Adapter"
        (path "/83fb4473-b9bd-4da9-920e-764db8ea9029"
          (reference "#U0102") (unit 1)
        )
      )
    )
  )

  (symbol (lib_id "power:+5V") (at 136.525 46.355 0) (unit 1)
    (in_bom yes) (on_board yes) (dnp no) (fields_autoplaced)
    (uuid 9f0f5a08-1a01-4b22-a576-631c973f5df2)
    (property "Reference" "#U0106" (at 136.525 50.165 0)
      (effects (font (size 1.27 1.27)) hide)
    )
    (property "Value" "+5V" (at 136.525 42.8721 0)
      (effects (font (size 1.27 1.27)))
    )
    (property "Footprint" "" (at 136.525 46.355 0)
      (effects (font (size 1.27 1.27)) hide)
    )
    (property "Datasheet" "" (at 136.525 46.355 0)
      (effects (font (size 1.27 1.27)) hide)
    )
    (pin "1" (uuid 2a01fb65-f685-4d36-9ff7-6781fe2cbf3e))
    (instances
      (project "Amiga_27C400_Emulator_Adapter"
        (path "/83fb4473-b9bd-4da9-920e-764db8ea9029"
          (reference "#U0106") (unit 1)
        )
      )
    )
  )

  (symbol (lib_id "Connector_Generic:Conn_02x20_Counter_Clockwise") (at 171.45 73.66 0) (unit 1)
    (in_bom yes) (on_board yes) (dnp no) (fields_autoplaced)
    (uuid c6f08c80-ca4f-4cd8-a6a4-d5d753f14abc)
    (property "Reference" "J3" (at 172.72 46.6979 0)
      (effects (font (size 1.27 1.27)))
    )
    (property "Value" "Textool" (at 172.72 48.4601 0)
      (effects (font (size 1.27 1.27)))
    )
    (property "Footprint" "Socket:3M_Textool_240-1288-00-0602J_2x20_P2.54mm" (at 171.45 73.66 0)
      (effects (font (size 1.27 1.27)) hide)
    )
    (property "Datasheet" "~" (at 171.45 73.66 0)
      (effects (font (size 1.27 1.27)) hide)
    )
    (pin "1" (uuid 173d95e8-02fb-4226-8b3f-d9d1eea2e89f))
    (pin "10" (uuid 04a17f52-4f66-4faa-a71e-ccb5205760fa))
    (pin "11" (uuid 3dc505ab-b297-4126-8cf5-e8d1a47a62ee))
    (pin "12" (uuid 5b702922-b491-4620-8f10-f5bfcc172732))
    (pin "13" (uuid 7d9fc2e4-ab31-4871-99d3-ff048c103942))
    (pin "14" (uuid 872eabed-d03b-4323-b343-6742e6db1129))
    (pin "15" (uuid 4fb6479b-d8d3-4191-93b8-2cc95d0cc9e5))
    (pin "16" (uuid 5ba96e54-5a9e-4d94-b50a-4587f924097c))
    (pin "17" (uuid d4682349-b89b-450b-974e-825af23ba9d3))
    (pin "18" (uuid 4cd2aac8-a5d6-4d80-8b1f-2fc6ffea0f9f))
    (pin "19" (uuid 629da9c0-7d5b-4327-bfce-8bd64c8694d4))
    (pin "2" (uuid c1077a9a-5faf-49ef-8f2d-7cb8eecebb43))
    (pin "20" (uuid ed115064-88b6-402e-828f-3c8455498776))
    (pin "21" (uuid 6fd4ed76-bb70-4efe-8276-862d8ca5f950))
    (pin "22" (uuid a0d737a4-7205-451f-a108-017cd855e72e))
    (pin "23" (uuid 94ddc398-8213-4a7d-8f2a-0a37eab875c9))
    (pin "24" (uuid 5666517e-d882-4cde-b038-d5bcae79d720))
    (pin "25" (uuid 3fc0dc57-a4d9-452f-a27c-8c5468ec066f))
    (pin "26" (uuid 45d27983-ff2f-4919-9b7e-c8883aca2310))
    (pin "27" (uuid c081f164-07fe-4951-a4dd-8e68c9af62e1))
    (pin "28" (uuid 52258d7f-47bd-4f11-881e-c561a651f8f5))
    (pin "29" (uuid 2286b541-3968-4449-a78a-6f9ea355db01))
    (pin "3" (uuid 3f81de5f-d927-46c8-b28f-f986e5853342))
    (pin "30" (uuid bbc61ba1-b4de-44d8-9050-055c1fb4cf07))
    (pin "31" (uuid 20bf4d1a-e82f-47e6-ae15-cf80631174e3))
    (pin "32" (uuid 7f437be3-4ca2-45df-84a8-1d0d6b242b32))
    (pin "33" (uuid b527e441-f6ae-44e0-abbb-2132c3fbdb01))
    (pin "34" (uuid d29715e7-6b85-4af2-a22e-7e3616618984))
    (pin "35" (uuid 07c058e9-d3ed-4c8b-b7ae-b6d819c7c32c))
    (pin "36" (uuid 9ad3bdd6-06bf-4484-b2d4-26f0d6249f79))
    (pin "37" (uuid e424d34e-fca1-4172-882e-e183a2afbfb3))
    (pin "38" (uuid 7002f10a-0d21-4923-b125-c57ab4047ba3))
    (pin "39" (uuid 717dce40-34f4-4de2-b5ba-5661b2712427))
    (pin "4" (uuid e6170775-ac2c-480b-80ef-7dca341cfc32))
    (pin "40" (uuid a5124c5f-bcc6-4f86-b628-e4308aedd973))
    (pin "5" (uuid 8197d74a-bbb0-4710-b04a-1812ef5c9d51))
    (pin "6" (uuid 941630e2-5f25-48b6-9390-c1cff910108e))
    (pin "7" (uuid 91c27631-385c-4a98-b64f-7c5f325a13dc))
    (pin "8" (uuid 7e1a8820-89f4-4ecb-bf9d-5f9e37096ecc))
    (pin "9" (uuid dc2450f0-67e9-4c5d-867f-2cd7be36b54f))
    (instances
      (project "Amiga_27C400_Emulator_Adapter"
        (path "/83fb4473-b9bd-4da9-920e-764db8ea9029"
          (reference "J3") (unit 1)
        )
      )
    )
  )

  (symbol (lib_id "Connector_Generic:Conn_02x04_Odd_Even") (at 171.45 123.19 0) (unit 1)
    (in_bom yes) (on_board yes) (dnp no) (fields_autoplaced)
    (uuid ddd2bb12-d881-462d-bfee-902dea257616)
    (property "Reference" "J4" (at 172.72 118.3101 0)
      (effects (font (size 1.27 1.27)))
    )
    (property "Value" "Conn_02x04_Odd_Even" (at 172.72 118.3101 0)
      (effects (font (size 1.27 1.27)) hide)
    )
    (property "Footprint" "Connector_IDC:IDC-Header_2x04_P2.54mm_Vertical" (at 171.45 123.19 0)
      (effects (font (size 1.27 1.27)) hide)
    )
    (property "Datasheet" "~" (at 171.45 123.19 0)
      (effects (font (size 1.27 1.27)) hide)
    )
    (pin "1" (uuid 289402e2-e941-47b0-bb60-d8f2ac573c6b))
    (pin "2" (uuid 7904ca17-6911-486d-80bd-c37e680f5b7b))
    (pin "3" (uuid 6c02fe0d-52de-48d7-bca4-5a2041deec41))
    (pin "4" (uuid 9a486664-bc61-4a51-b008-b9eee2f167e3))
    (pin "5" (uuid 4b31560d-f0f2-4580-94d9-b574dc4707af))
    (pin "6" (uuid c7cb952c-6de7-4f27-bfdf-28dfced82d28))
    (pin "7" (uuid e7466471-d45b-47aa-b70a-afed67400ffd))
    (pin "8" (uuid f80dd11b-4e4d-4e9a-b277-c910b42ce2c2))
    (instances
      (project "Amiga_27C400_Emulator_Adapter"
        (path "/83fb4473-b9bd-4da9-920e-764db8ea9029"
          (reference "J4") (unit 1)
        )
      )
    )
  )

  (symbol (lib_id "power:GND") (at 135.255 115.57 0) (unit 1)
    (in_bom yes) (on_board yes) (dnp no) (fields_autoplaced)
    (uuid e5c89d34-6cdc-4760-801a-3f5e6fc62d88)
    (property "Reference" "#U0105" (at 135.255 121.92 0)
      (effects (font (size 1.27 1.27)) hide)
    )
    (property "Value" "GND" (at 135.255 119.6261 0)
      (effects (font (size 1.27 1.27)))
    )
    (property "Footprint" "" (at 135.255 115.57 0)
      (effects (font (size 1.27 1.27)) hide)
    )
    (property "Datasheet" "" (at 135.255 115.57 0)
      (effects (font (size 1.27 1.27)) hide)
    )
    (pin "1" (uuid f9b7717f-ba8d-4a93-ac6d-bef93b3d3997))
    (instances
      (project "Amiga_27C400_Emulator_Adapter"
        (path "/83fb4473-b9bd-4da9-920e-764db8ea9029"
          (reference "#U0105") (unit 1)
        )
      )
    )
  )

  (sheet_instances
    (path "/" (page "1"))
  )
)
